<?xml version="1.0" encoding="utf-8"  standalone="no"?>
<svg 
 width="600" height="480"
 viewBox="0 0 600 480"
 xmlns="http://www.w3.org/2000/svg"
 xmlns:xlink="http://www.w3.org/1999/xlink"
>

<title>Gnuplot</title>
<desc>Produced by GNUPLOT 5.2 patchlevel 6 </desc>

<g id="gnuplot_canvas">

<rect x="0" y="0" width="600" height="480" fill="none"/>
<defs>

	<circle id='gpDot' r='0.5' stroke-width='0.5' stroke='currentColor'/>
	<path id='gpPt0' stroke-width='0.333' stroke='currentColor' d='M-1,0 h2 M0,-1 v2'/>
	<path id='gpPt1' stroke-width='0.333' stroke='currentColor' d='M-1,-1 L1,1 M1,-1 L-1,1'/>
	<path id='gpPt2' stroke-width='0.333' stroke='currentColor' d='M-1,0 L1,0 M0,-1 L0,1 M-1,-1 L1,1 M-1,1 L1,-1'/>
	<rect id='gpPt3' stroke-width='0.333' stroke='currentColor' x='-1' y='-1' width='2' height='2'/>
	<rect id='gpPt4' stroke-width='0.333' stroke='currentColor' fill='currentColor' x='-1' y='-1' width='2' height='2'/>
	<circle id='gpPt5' stroke-width='0.333' stroke='currentColor' cx='0' cy='0' r='1'/>
	<use xlink:href='#gpPt5' id='gpPt6' fill='currentColor' stroke='none'/>
	<path id='gpPt7' stroke-width='0.333' stroke='currentColor' d='M0,-1.33 L-1.33,0.67 L1.33,0.67 z'/>
	<use xlink:href='#gpPt7' id='gpPt8' fill='currentColor' stroke='none'/>
	<use xlink:href='#gpPt7' id='gpPt9' stroke='currentColor' transform='rotate(180)'/>
	<use xlink:href='#gpPt9' id='gpPt10' fill='currentColor' stroke='none'/>
	<use xlink:href='#gpPt3' id='gpPt11' stroke='currentColor' transform='rotate(45)'/>
	<use xlink:href='#gpPt11' id='gpPt12' fill='currentColor' stroke='none'/>
	<path id='gpPt13' stroke-width='0.333' stroke='currentColor' d='M0,1.330 L1.265,0.411 L0.782,-1.067 L-0.782,-1.076 L-1.265,0.411 z'/>
	<use xlink:href='#gpPt13' id='gpPt14' fill='currentColor' stroke='none'/>
	<filter id='textbox' filterUnits='objectBoundingBox' x='0' y='0' height='1' width='1'>
	  <feFlood flood-color='white' flood-opacity='1' result='bgnd'/>
	  <feComposite in='SourceGraphic' in2='bgnd' operator='atop'/>
	</filter>
	<filter id='greybox' filterUnits='objectBoundingBox' x='0' y='0' height='1' width='1'>
	  <feFlood flood-color='lightgrey' flood-opacity='1' result='grey'/>
	  <feComposite in='SourceGraphic' in2='grey' operator='atop'/>
	</filter>
</defs>
<g fill="none" color="white" stroke="currentColor" stroke-width="1.00" stroke-linecap="butt" stroke-linejoin="miter">
</g>
<g fill="none" color="black" stroke="currentColor" stroke-width="1.00" stroke-linecap="butt" stroke-linejoin="miter">
</g>
<g fill="none" color="black" stroke="black" stroke-width="0.50" stroke-linecap="butt" stroke-linejoin="miter">
</g>
<g fill="none" color="gray" stroke="currentColor" stroke-width="0.50" stroke-linecap="butt" stroke-linejoin="miter">
	<path stroke='gray' stroke-dasharray='2,4' class="gridline"  d='M33.0,389.9 L594.4,389.9  '/></g>
<g fill="none" color="gray" stroke="gray" stroke-width="1.00" stroke-linecap="butt" stroke-linejoin="miter">
</g>
<g fill="none" color="black" stroke="currentColor" stroke-width="1.00" stroke-linecap="butt" stroke-linejoin="miter">
	<path stroke='black'  d='M33.0,389.9 L39.0,389.9 M594.4,389.9 L588.4,389.9  '/>	<g transform="translate(27.5,392.5)" stroke="none" fill="black" font-family="Verdana" font-size="8.00"  text-anchor="end">
		<text><tspan font-family="Verdana" > 1</tspan></text>
	</g>
</g>
<g fill="none" color="black" stroke="currentColor" stroke-width="1.00" stroke-linecap="butt" stroke-linejoin="miter">
	<path stroke='black'  d='M33.0,354.4 L36.0,354.4 M594.4,354.4 L591.4,354.4 M33.0,333.6 L36.0,333.6 M594.4,333.6 L591.4,333.6
		M33.0,318.9 L36.0,318.9 M594.4,318.9 L591.4,318.9 M33.0,307.5 L36.0,307.5 M594.4,307.5 L591.4,307.5
		M33.0,298.1 L36.0,298.1 M594.4,298.1 L591.4,298.1 M33.0,290.2 L36.0,290.2 M594.4,290.2 L591.4,290.2
		M33.0,283.4 L36.0,283.4 M594.4,283.4 L591.4,283.4 M33.0,277.4 L36.0,277.4 M594.4,277.4 L591.4,277.4
		 '/></g>
<g fill="none" color="black" stroke="black" stroke-width="0.50" stroke-linecap="butt" stroke-linejoin="miter">
</g>
<g fill="none" color="gray" stroke="currentColor" stroke-width="0.50" stroke-linecap="butt" stroke-linejoin="miter">
	<path stroke='gray' stroke-dasharray='2,4' class="gridline"  d='M33.0,272.0 L594.4,272.0  '/></g>
<g fill="none" color="gray" stroke="gray" stroke-width="1.00" stroke-linecap="butt" stroke-linejoin="miter">
</g>
<g fill="none" color="black" stroke="currentColor" stroke-width="1.00" stroke-linecap="butt" stroke-linejoin="miter">
	<path stroke='black'  d='M33.0,272.0 L39.0,272.0 M594.4,272.0 L588.4,272.0  '/>	<g transform="translate(27.5,274.6)" stroke="none" fill="black" font-family="Verdana" font-size="8.00"  text-anchor="end">
		<text><tspan font-family="Verdana" > 10</tspan></text>
	</g>
</g>
<g fill="none" color="black" stroke="currentColor" stroke-width="1.00" stroke-linecap="butt" stroke-linejoin="miter">
	<path stroke='black'  d='M33.0,236.5 L36.0,236.5 M594.4,236.5 L591.4,236.5 M33.0,215.7 L36.0,215.7 M594.4,215.7 L591.4,215.7
		M33.0,201.0 L36.0,201.0 M594.4,201.0 L591.4,201.0 M33.0,189.5 L36.0,189.5 M594.4,189.5 L591.4,189.5
		M33.0,180.2 L36.0,180.2 M594.4,180.2 L591.4,180.2 M33.0,172.3 L36.0,172.3 M594.4,172.3 L591.4,172.3
		M33.0,165.5 L36.0,165.5 M594.4,165.5 L591.4,165.5 M33.0,159.4 L36.0,159.4 M594.4,159.4 L591.4,159.4
		 '/></g>
<g fill="none" color="black" stroke="black" stroke-width="0.50" stroke-linecap="butt" stroke-linejoin="miter">
</g>
<g fill="none" color="gray" stroke="currentColor" stroke-width="0.50" stroke-linecap="butt" stroke-linejoin="miter">
	<path stroke='gray' stroke-dasharray='2,4' class="gridline"  d='M33.0,154.0 L594.4,154.0  '/></g>
<g fill="none" color="gray" stroke="gray" stroke-width="1.00" stroke-linecap="butt" stroke-linejoin="miter">
</g>
<g fill="none" color="black" stroke="currentColor" stroke-width="1.00" stroke-linecap="butt" stroke-linejoin="miter">
	<path stroke='black'  d='M33.0,154.0 L39.0,154.0 M594.4,154.0 L588.4,154.0  '/>	<g transform="translate(27.5,156.6)" stroke="none" fill="black" font-family="Verdana" font-size="8.00"  text-anchor="end">
		<text><tspan font-family="Verdana" > 100</tspan></text>
	</g>
</g>
<g fill="none" color="black" stroke="currentColor" stroke-width="1.00" stroke-linecap="butt" stroke-linejoin="miter">
	<path stroke='black'  d='M33.0,118.5 L36.0,118.5 M594.4,118.5 L591.4,118.5 M33.0,97.8 L36.0,97.8 M594.4,97.8 L591.4,97.8
		M33.0,83.0 L36.0,83.0 M594.4,83.0 L591.4,83.0 M33.0,71.6 L36.0,71.6 M594.4,71.6 L591.4,71.6
		M33.0,62.3 L36.0,62.3 M594.4,62.3 L591.4,62.3 M33.0,54.4 L36.0,54.4 M594.4,54.4 L591.4,54.4
		M33.0,47.5 L36.0,47.5 M594.4,47.5 L591.4,47.5 M33.0,41.5 L36.0,41.5 M594.4,41.5 L591.4,41.5
		 '/></g>
<g fill="none" color="black" stroke="black" stroke-width="0.50" stroke-linecap="butt" stroke-linejoin="miter">
</g>
<g fill="none" color="gray" stroke="currentColor" stroke-width="0.50" stroke-linecap="butt" stroke-linejoin="miter">
	<path stroke='gray' stroke-dasharray='2,4' class="gridline"  d='M33.0,36.1 L594.4,36.1  '/></g>
<g fill="none" color="gray" stroke="gray" stroke-width="1.00" stroke-linecap="butt" stroke-linejoin="miter">
</g>
<g fill="none" color="black" stroke="currentColor" stroke-width="1.00" stroke-linecap="butt" stroke-linejoin="miter">
	<path stroke='black'  d='M33.0,36.1 L39.0,36.1 M594.4,36.1 L588.4,36.1  '/>	<g transform="translate(27.5,38.7)" stroke="none" fill="black" font-family="Verdana" font-size="8.00"  text-anchor="end">
		<text><tspan font-family="Verdana" > 1000</tspan></text>
	</g>
</g>
<g fill="none" color="black" stroke="currentColor" stroke-width="1.00" stroke-linecap="butt" stroke-linejoin="miter">
	<path stroke='black'  d='M66.0,389.9 M66.0,36.1  '/>	<g transform="translate(67.8,397.3) rotate(-45)" stroke="none" fill="black" font-family="Verdana" font-size="8.00"  text-anchor="end">
		<text><tspan font-family="Verdana" >bague-proxy</tspan></text>
	</g>
</g>
<g fill="none" color="black" stroke="currentColor" stroke-width="1.00" stroke-linecap="butt" stroke-linejoin="miter">
	<path stroke='black'  d='M99.0,389.9 M99.0,36.1  '/>	<g transform="translate(100.8,397.3) rotate(-45)" stroke="none" fill="black" font-family="Verdana" font-size="8.00"  text-anchor="end">
		<text><tspan font-family="Verdana" >base64-proxy</tspan></text>
	</g>
</g>
<g fill="none" color="black" stroke="currentColor" stroke-width="1.00" stroke-linecap="butt" stroke-linejoin="miter">
	<path stroke='black'  d='M132.1,389.9 M132.1,36.1  '/>	<g transform="translate(133.9,397.3) rotate(-45)" stroke="none" fill="black" font-family="Verdana" font-size="8.00"  text-anchor="end">
		<text><tspan font-family="Verdana" >binary-tree-proxy</tspan></text>
	</g>
</g>
<g fill="none" color="black" stroke="currentColor" stroke-width="1.00" stroke-linecap="butt" stroke-linejoin="miter">
	<path stroke='black'  d='M165.1,389.9 M165.1,36.1  '/>	<g transform="translate(166.9,397.3) rotate(-45)" stroke="none" fill="black" font-family="Verdana" font-size="8.00"  text-anchor="end">
		<text><tspan font-family="Verdana" >crypto-aes-proxy</tspan></text>
	</g>
</g>
<g fill="none" color="black" stroke="currentColor" stroke-width="1.00" stroke-linecap="butt" stroke-linejoin="miter">
	<path stroke='black'  d='M198.1,389.9 M198.1,36.1  '/>	<g transform="translate(199.9,397.3) rotate(-45)" stroke="none" fill="black" font-family="Verdana" font-size="8.00"  text-anchor="end">
		<text><tspan font-family="Verdana" >crypto-md5-proxy</tspan></text>
	</g>
</g>
<g fill="none" color="black" stroke="currentColor" stroke-width="1.00" stroke-linecap="butt" stroke-linejoin="miter">
	<path stroke='black'  d='M231.1,389.9 M231.1,36.1  '/>	<g transform="translate(232.9,397.3) rotate(-45)" stroke="none" fill="black" font-family="Verdana" font-size="8.00"  text-anchor="end">
		<text><tspan font-family="Verdana" >crypto-sha1-proxy</tspan></text>
	</g>
</g>
<g fill="none" color="black" stroke="currentColor" stroke-width="1.00" stroke-linecap="butt" stroke-linejoin="miter">
	<path stroke='black'  d='M264.2,389.9 M264.2,36.1  '/>	<g transform="translate(266.0,397.3) rotate(-45)" stroke="none" fill="black" font-family="Verdana" font-size="8.00"  text-anchor="end">
		<text><tspan font-family="Verdana" >deltablue-proxy</tspan></text>
	</g>
</g>
<g fill="none" color="black" stroke="currentColor" stroke-width="1.00" stroke-linecap="butt" stroke-linejoin="miter">
	<path stroke='black'  d='M297.2,389.9 M297.2,36.1  '/>	<g transform="translate(299.0,397.3) rotate(-45)" stroke="none" fill="black" font-family="Verdana" font-size="8.00"  text-anchor="end">
		<text><tspan font-family="Verdana" >earley-proxy</tspan></text>
	</g>
</g>
<g fill="none" color="black" stroke="currentColor" stroke-width="1.00" stroke-linecap="butt" stroke-linejoin="miter">
	<path stroke='black'  d='M330.2,389.9 M330.2,36.1  '/>	<g transform="translate(332.0,397.3) rotate(-45)" stroke="none" fill="black" font-family="Verdana" font-size="8.00"  text-anchor="end">
		<text><tspan font-family="Verdana" >fannkuch-proxy</tspan></text>
	</g>
</g>
<g fill="none" color="black" stroke="currentColor" stroke-width="1.00" stroke-linecap="butt" stroke-linejoin="miter">
	<path stroke='black'  d='M363.2,389.9 M363.2,36.1  '/>	<g transform="translate(365.0,397.3) rotate(-45)" stroke="none" fill="black" font-family="Verdana" font-size="8.00"  text-anchor="end">
		<text><tspan font-family="Verdana" >hash-map-proxy</tspan></text>
	</g>
</g>
<g fill="none" color="black" stroke="currentColor" stroke-width="1.00" stroke-linecap="butt" stroke-linejoin="miter">
	<path stroke='black'  d='M396.3,389.9 M396.3,36.1  '/>	<g transform="translate(398.1,397.3) rotate(-45)" stroke="none" fill="black" font-family="Verdana" font-size="8.00"  text-anchor="end">
		<text><tspan font-family="Verdana" >maze-proxy</tspan></text>
	</g>
</g>
<g fill="none" color="black" stroke="currentColor" stroke-width="1.00" stroke-linecap="butt" stroke-linejoin="miter">
	<path stroke='black'  d='M429.3,389.9 M429.3,36.1  '/>	<g transform="translate(431.1,397.3) rotate(-45)" stroke="none" fill="black" font-family="Verdana" font-size="8.00"  text-anchor="end">
		<text><tspan font-family="Verdana" >puzzle-proxy</tspan></text>
	</g>
</g>
<g fill="none" color="black" stroke="currentColor" stroke-width="1.00" stroke-linecap="butt" stroke-linejoin="miter">
	<path stroke='black'  d='M462.3,389.9 M462.3,36.1  '/>	<g transform="translate(464.1,397.3) rotate(-45)" stroke="none" fill="black" font-family="Verdana" font-size="8.00"  text-anchor="end">
		<text><tspan font-family="Verdana" >qsort-proxy</tspan></text>
	</g>
</g>
<g fill="none" color="black" stroke="currentColor" stroke-width="1.00" stroke-linecap="butt" stroke-linejoin="miter">
	<path stroke='black'  d='M495.3,389.9 M495.3,36.1  '/>	<g transform="translate(497.1,397.3) rotate(-45)" stroke="none" fill="black" font-family="Verdana" font-size="8.00"  text-anchor="end">
		<text><tspan font-family="Verdana" >richards-proxy</tspan></text>
	</g>
</g>
<g fill="none" color="black" stroke="currentColor" stroke-width="1.00" stroke-linecap="butt" stroke-linejoin="miter">
	<path stroke='black'  d='M528.4,389.9 M528.4,36.1  '/>	<g transform="translate(530.2,397.3) rotate(-45)" stroke="none" fill="black" font-family="Verdana" font-size="8.00"  text-anchor="end">
		<text><tspan font-family="Verdana" >sieve-proxy</tspan></text>
	</g>
</g>
<g fill="none" color="black" stroke="currentColor" stroke-width="1.00" stroke-linecap="butt" stroke-linejoin="miter">
	<path stroke='black'  d='M561.4,389.9 M561.4,36.1  '/>	<g transform="translate(563.2,397.3) rotate(-45)" stroke="none" fill="black" font-family="Verdana" font-size="8.00"  text-anchor="end">
		<text><tspan font-family="Verdana" >splay-proxy</tspan></text>
	</g>
</g>
<g fill="none" color="black" stroke="currentColor" stroke-width="1.00" stroke-linecap="butt" stroke-linejoin="miter">
</g>
<g fill="none" color="black" stroke="currentColor" stroke-width="1.00" stroke-linecap="butt" stroke-linejoin="miter">
	<path stroke='black'  d='M33.0,36.1 L33.0,389.9 L594.4,389.9 L594.4,36.1 L33.0,36.1 Z  '/></g>
<g fill="none" color="black" stroke="currentColor" stroke-width="1.00" stroke-linecap="butt" stroke-linejoin="miter">
</g>
<g fill="none" color="black" stroke="currentColor" stroke-width="1.00" stroke-linecap="butt" stroke-linejoin="miter">
	<g transform="translate(313.7,20.7)" stroke="none" fill="black" font-family="Verdana" font-size="8.00"  text-anchor="middle">
		<text><tspan font-family="Verdana" >Proxy impact</tspan></text>
	</g>
</g>
	<g id="gnuplot_plot_1" ><title>chakra</title>
<g fill="none" color="black" stroke="currentColor" stroke-width="1.00" stroke-linecap="butt" stroke-linejoin="miter">
	<g transform="translate(130.7,470.6)" stroke="none" fill="black" font-family="Verdana" font-size="8.00"  text-anchor="end">
		<text><tspan font-family="Verdana" >chakra</tspan></text>
	</g>
</g>
<g fill="none" color="black" stroke="currentColor" stroke-width="1.00" stroke-linecap="butt" stroke-linejoin="miter">
	<g stroke='none' shape-rendering='crispEdges'>
		<polygon fill = 'rgb( 50, 100, 200)' points = '136.2,471.0 164.2,471.0 164.2,465.0 136.2,465.0 '/>
	</g>
	<path stroke='rgb( 50, 100, 200)'  d='M136.2,471.0 L164.2,471.0 L164.2,465.0 L136.2,465.0 L136.2,471.0 Z  '/></g>
<g fill="none" color="black" stroke="currentColor" stroke-width="1.00" stroke-linecap="butt" stroke-linejoin="miter">
	<g stroke='none' shape-rendering='crispEdges'>
		<polygon fill = 'rgb( 50, 100, 200)' points = '52.1,389.9 56.5,389.9 56.5,218.2 52.1,218.2 '/>
	</g>
	<path stroke='rgb( 50, 100, 200)'  d='M52.1,389.9 L52.1,218.3 L56.4,218.3 L56.4,389.9 L52.1,389.9 Z  '/>	<g stroke='none' shape-rendering='crispEdges'>
		<polygon fill = 'rgb( 50, 100, 200)' points = '85.1,389.9 89.5,389.9 89.5,235.5 85.1,235.5 '/>
	</g>
	<path stroke='rgb( 50, 100, 200)'  d='M85.1,389.9 L85.1,235.6 L89.4,235.6 L89.4,389.9 L85.1,389.9 Z  '/>	<g stroke='none' shape-rendering='crispEdges'>
		<polygon fill = 'rgb( 50, 100, 200)' points = '118.2,389.9 122.5,389.9 122.5,237.7 118.2,237.7 '/>
	</g>
	<path stroke='rgb( 50, 100, 200)'  d='M118.2,389.9 L118.2,237.8 L122.4,237.8 L122.4,389.9 L118.2,389.9 Z  '/>	<g stroke='none' shape-rendering='crispEdges'>
		<polygon fill = 'rgb( 50, 100, 200)' points = '151.2,389.9 155.5,389.9 155.5,179.7 151.2,179.7 '/>
	</g>
	<path stroke='rgb( 50, 100, 200)'  d='M151.2,389.9 L151.2,179.8 L155.4,179.8 L155.4,389.9 L151.2,389.9 Z  '/>	<g stroke='none' shape-rendering='crispEdges'>
		<polygon fill = 'rgb( 50, 100, 200)' points = '184.2,389.9 188.5,389.9 188.5,235.1 184.2,235.1 '/>
	</g>
	<path stroke='rgb( 50, 100, 200)'  d='M184.2,389.9 L184.2,235.2 L188.4,235.2 L188.4,389.9 L184.2,389.9 Z  '/>	<g stroke='none' shape-rendering='crispEdges'>
		<polygon fill = 'rgb( 50, 100, 200)' points = '217.2,389.9 221.6,389.9 221.6,178.4 217.2,178.4 '/>
	</g>
	<path stroke='rgb( 50, 100, 200)'  d='M217.2,389.9 L217.2,178.5 L221.5,178.5 L221.5,389.9 L217.2,389.9 Z  '/>	<g stroke='none' shape-rendering='crispEdges'>
		<polygon fill = 'rgb( 50, 100, 200)' points = '250.2,389.9 254.6,389.9 254.6,176.9 250.2,176.9 '/>
	</g>
	<path stroke='rgb( 50, 100, 200)'  d='M250.2,389.9 L250.2,177.0 L254.5,177.0 L254.5,389.9 L250.2,389.9 Z  '/>	<g stroke='none' shape-rendering='crispEdges'>
		<polygon fill = 'rgb( 50, 100, 200)' points = '283.3,389.9 287.6,389.9 287.6,242.2 283.3,242.2 '/>
	</g>
	<path stroke='rgb( 50, 100, 200)'  d='M283.3,389.9 L283.3,242.3 L287.5,242.3 L287.5,389.9 L283.3,389.9 Z  '/>	<g stroke='none' shape-rendering='crispEdges'>
		<polygon fill = 'rgb( 50, 100, 200)' points = '316.3,389.9 320.6,389.9 320.6,136.8 316.3,136.8 '/>
	</g>
	<path stroke='rgb( 50, 100, 200)'  d='M316.3,389.9 L316.3,136.9 L320.5,136.9 L320.5,389.9 L316.3,389.9 Z  '/>	<g stroke='none' shape-rendering='crispEdges'>
		<polygon fill = 'rgb( 50, 100, 200)' points = '349.3,389.9 353.7,389.9 353.7,213.3 349.3,213.3 '/>
	</g>
	<path stroke='rgb( 50, 100, 200)'  d='M349.3,389.9 L349.3,213.4 L353.6,213.4 L353.6,389.9 L349.3,389.9 Z  '/>	<g stroke='none' shape-rendering='crispEdges'>
		<polygon fill = 'rgb( 50, 100, 200)' points = '382.3,389.9 386.7,389.9 386.7,294.2 382.3,294.2 '/>
	</g>
	<path stroke='rgb( 50, 100, 200)'  d='M382.3,389.9 L382.3,294.3 L386.6,294.3 L386.6,389.9 L382.3,389.9 Z  '/>	<g stroke='none' shape-rendering='crispEdges'>
		<polygon fill = 'rgb( 50, 100, 200)' points = '415.4,389.9 419.7,389.9 419.7,145.6 415.4,145.6 '/>
	</g>
	<path stroke='rgb( 50, 100, 200)'  d='M415.4,389.9 L415.4,145.7 L419.6,145.7 L419.6,389.9 L415.4,389.9 Z  '/>	<g stroke='none' shape-rendering='crispEdges'>
		<polygon fill = 'rgb( 50, 100, 200)' points = '448.4,389.9 452.7,389.9 452.7,148.3 448.4,148.3 '/>
	</g>
	<path stroke='rgb( 50, 100, 200)'  d='M448.4,389.9 L448.4,148.4 L452.6,148.4 L452.6,389.9 L448.4,389.9 Z  '/>	<g stroke='none' shape-rendering='crispEdges'>
		<polygon fill = 'rgb( 50, 100, 200)' points = '481.4,389.9 485.8,389.9 485.8,232.6 481.4,232.6 '/>
	</g>
	<path stroke='rgb( 50, 100, 200)'  d='M481.4,389.9 L481.4,232.7 L485.7,232.7 L485.7,389.9 L481.4,389.9 Z  '/>	<g stroke='none' shape-rendering='crispEdges'>
		<polygon fill = 'rgb( 50, 100, 200)' points = '514.4,389.9 518.8,389.9 518.8,260.0 514.4,260.0 '/>
	</g>
	<path stroke='rgb( 50, 100, 200)'  d='M514.4,389.9 L514.4,260.1 L518.7,260.1 L518.7,389.9 L514.4,389.9 Z  '/>	<g stroke='none' shape-rendering='crispEdges'>
		<polygon fill = 'rgb( 50, 100, 200)' points = '547.5,389.9 551.8,389.9 551.8,278.0 547.5,278.0 '/>
	</g>
	<path stroke='rgb( 50, 100, 200)'  d='M547.5,389.9 L547.5,278.1 L551.7,278.1 L551.7,389.9 L547.5,389.9 Z  '/></g>
	</g>
	<g id="gnuplot_plot_2" ><title>graal</title>
<g fill="none" color="black" stroke="currentColor" stroke-width="1.00" stroke-linecap="butt" stroke-linejoin="miter">
	<g transform="translate(202.7,470.6)" stroke="none" fill="black" font-family="Verdana" font-size="8.00"  text-anchor="end">
		<text><tspan font-family="Verdana" >graal</tspan></text>
	</g>
</g>
<g fill="none" color="black" stroke="currentColor" stroke-width="1.00" stroke-linecap="butt" stroke-linejoin="miter">
	<g stroke='none' shape-rendering='crispEdges'>
		<polygon fill = 'rgb(216,  56,  18)' points = '208.2,471.0 236.2,471.0 236.2,465.0 208.2,465.0 '/>
	</g>
	<path stroke='rgb(216,  56,  18)'  d='M208.2,471.0 L236.2,471.0 L236.2,465.0 L208.2,465.0 L208.2,471.0 Z  '/></g>
<g fill="none" color="black" stroke="currentColor" stroke-width="1.00" stroke-linecap="butt" stroke-linejoin="miter">
	<g stroke='none' shape-rendering='crispEdges'>
		<polygon fill = 'rgb(216,  56,  18)' points = '56.8,389.9 61.2,389.9 61.2,306.1 56.8,306.1 '/>
	</g>
	<path stroke='rgb(216,  56,  18)'  d='M56.8,389.9 L56.8,306.2 L61.1,306.2 L61.1,389.9 L56.8,389.9 Z  '/>	<g stroke='none' shape-rendering='crispEdges'>
		<polygon fill = 'rgb(216,  56,  18)' points = '89.8,389.9 94.2,389.9 94.2,344.1 89.8,344.1 '/>
	</g>
	<path stroke='rgb(216,  56,  18)'  d='M89.8,389.9 L89.8,344.2 L94.1,344.2 L94.1,389.9 L89.8,389.9 Z  '/>	<g stroke='none' shape-rendering='crispEdges'>
		<polygon fill = 'rgb(216,  56,  18)' points = '122.9,389.9 127.2,389.9 127.2,344.7 122.9,344.7 '/>
	</g>
	<path stroke='rgb(216,  56,  18)'  d='M122.9,389.9 L122.9,344.8 L127.1,344.8 L127.1,389.9 L122.9,389.9 Z  '/>	<g stroke='none' shape-rendering='crispEdges'>
		<polygon fill = 'rgb(216,  56,  18)' points = '155.9,389.9 160.2,389.9 160.2,309.2 155.9,309.2 '/>
	</g>
	<path stroke='rgb(216,  56,  18)'  d='M155.9,389.9 L155.9,309.3 L160.1,309.3 L160.1,389.9 L155.9,389.9 Z  '/>	<g stroke='none' shape-rendering='crispEdges'>
		<polygon fill = 'rgb(216,  56,  18)' points = '188.9,389.9 193.3,389.9 193.3,310.5 188.9,310.5 '/>
	</g>
	<path stroke='rgb(216,  56,  18)'  d='M188.9,389.9 L188.9,310.6 L193.2,310.6 L193.2,389.9 L188.9,389.9 Z  '/>	<g stroke='none' shape-rendering='crispEdges'>
		<polygon fill = 'rgb(216,  56,  18)' points = '221.9,389.9 226.3,389.9 226.3,301.1 221.9,301.1 '/>
	</g>
	<path stroke='rgb(216,  56,  18)'  d='M221.9,389.9 L221.9,301.2 L226.2,301.2 L226.2,389.9 L221.9,389.9 Z  '/>	<g stroke='none' shape-rendering='crispEdges'>
		<polygon fill = 'rgb(216,  56,  18)' points = '255.0,389.9 259.3,389.9 259.3,278.9 255.0,278.9 '/>
	</g>
	<path stroke='rgb(216,  56,  18)'  d='M255.0,389.9 L255.0,279.0 L259.2,279.0 L259.2,389.9 L255.0,389.9 Z  '/>	<g stroke='none' shape-rendering='crispEdges'>
		<polygon fill = 'rgb(216,  56,  18)' points = '288.0,389.9 292.3,389.9 292.3,351.3 288.0,351.3 '/>
	</g>
	<path stroke='rgb(216,  56,  18)'  d='M288.0,389.9 L288.0,351.4 L292.2,351.4 L292.2,389.9 L288.0,389.9 Z  '/>	<g stroke='none' shape-rendering='crispEdges'>
		<polygon fill = 'rgb(216,  56,  18)' points = '321.0,389.9 325.4,389.9 325.4,262.4 321.0,262.4 '/>
	</g>
	<path stroke='rgb(216,  56,  18)'  d='M321.0,389.9 L321.0,262.5 L325.3,262.5 L325.3,389.9 L321.0,389.9 Z  '/>	<g stroke='none' shape-rendering='crispEdges'>
		<polygon fill = 'rgb(216,  56,  18)' points = '354.0,389.9 358.4,389.9 358.4,306.0 354.0,306.0 '/>
	</g>
	<path stroke='rgb(216,  56,  18)'  d='M354.0,389.9 L354.0,306.1 L358.3,306.1 L358.3,389.9 L354.0,389.9 Z  '/>	<g stroke='none' shape-rendering='crispEdges'>
		<polygon fill = 'rgb(216,  56,  18)' points = '420.1,389.9 424.4,389.9 424.4,339.3 420.1,339.3 '/>
	</g>
	<path stroke='rgb(216,  56,  18)'  d='M420.1,389.9 L420.1,339.4 L424.3,339.4 L424.3,389.9 L420.1,389.9 Z  '/>	<g stroke='none' shape-rendering='crispEdges'>
		<polygon fill = 'rgb(216,  56,  18)' points = '453.1,389.9 457.5,389.9 457.5,346.9 453.1,346.9 '/>
	</g>
	<path stroke='rgb(216,  56,  18)'  d='M453.1,389.9 L453.1,347.0 L457.4,347.0 L457.4,389.9 L453.1,389.9 Z  '/>	<g stroke='none' shape-rendering='crispEdges'>
		<polygon fill = 'rgb(216,  56,  18)' points = '486.1,389.9 490.5,389.9 490.5,306.7 486.1,306.7 '/>
	</g>
	<path stroke='rgb(216,  56,  18)'  d='M486.1,389.9 L486.1,306.8 L490.4,306.8 L490.4,389.9 L486.1,389.9 Z  '/>	<g stroke='none' shape-rendering='crispEdges'>
		<polygon fill = 'rgb(216,  56,  18)' points = '552.2,389.9 556.5,389.9 556.5,357.7 552.2,357.7 '/>
	</g>
	<path stroke='rgb(216,  56,  18)'  d='M552.2,389.9 L552.2,357.8 L556.4,357.8 L556.4,389.9 L552.2,389.9 Z  '/></g>
	</g>
	<g id="gnuplot_plot_3" ><title>hop</title>
<g fill="none" color="black" stroke="currentColor" stroke-width="1.00" stroke-linecap="butt" stroke-linejoin="miter">
	<g transform="translate(274.7,470.6)" stroke="none" fill="black" font-family="Verdana" font-size="8.00"  text-anchor="end">
		<text><tspan font-family="Verdana" >hop</tspan></text>
	</g>
</g>
<g fill="none" color="black" stroke="currentColor" stroke-width="1.00" stroke-linecap="butt" stroke-linejoin="miter">
	<g stroke='none' shape-rendering='crispEdges'>
		<polygon fill = 'rgb(250, 150,   0)' points = '280.2,471.0 308.2,471.0 308.2,465.0 280.2,465.0 '/>
	</g>
	<path stroke='rgb(250, 150,   0)'  d='M280.2,471.0 L308.2,471.0 L308.2,465.0 L280.2,465.0 L280.2,471.0 Z  '/></g>
<g fill="none" color="black" stroke="currentColor" stroke-width="1.00" stroke-linecap="butt" stroke-linejoin="miter">
	<g stroke='none' shape-rendering='crispEdges'>
		<polygon fill = 'rgb(250, 150,   0)' points = '61.5,389.9 65.9,389.9 65.9,266.2 61.5,266.2 '/>
	</g>
	<path stroke='rgb(250, 150,   0)'  d='M61.5,389.9 L61.5,266.3 L65.8,266.3 L65.8,389.9 L61.5,389.9 Z  '/>	<g stroke='none' shape-rendering='crispEdges'>
		<polygon fill = 'rgb(250, 150,   0)' points = '94.6,389.9 98.9,389.9 98.9,376.0 94.6,376.0 '/>
	</g>
	<path stroke='rgb(250, 150,   0)'  d='M94.6,389.9 L94.6,376.1 L98.8,376.1 L98.8,389.9 L94.6,389.9 Z  '/>	<g stroke='none' shape-rendering='crispEdges'>
		<polygon fill = 'rgb(250, 150,   0)' points = '127.6,389.9 131.9,389.9 131.9,343.5 127.6,343.5 '/>
	</g>
	<path stroke='rgb(250, 150,   0)'  d='M127.6,389.9 L127.6,343.6 L131.8,343.6 L131.8,389.9 L127.6,389.9 Z  '/>	<g stroke='none' shape-rendering='crispEdges'>
		<polygon fill = 'rgb(250, 150,   0)' points = '160.6,389.9 165.0,389.9 165.0,251.5 160.6,251.5 '/>
	</g>
	<path stroke='rgb(250, 150,   0)'  d='M160.6,389.9 L160.6,251.6 L164.9,251.6 L164.9,389.9 L160.6,389.9 Z  '/>	<g stroke='none' shape-rendering='crispEdges'>
		<polygon fill = 'rgb(250, 150,   0)' points = '193.6,389.9 198.0,389.9 198.0,310.8 193.6,310.8 '/>
	</g>
	<path stroke='rgb(250, 150,   0)'  d='M193.6,389.9 L193.6,310.9 L197.9,310.9 L197.9,389.9 L193.6,389.9 Z  '/>	<g stroke='none' shape-rendering='crispEdges'>
		<polygon fill = 'rgb(250, 150,   0)' points = '226.7,389.9 231.0,389.9 231.0,282.8 226.7,282.8 '/>
	</g>
	<path stroke='rgb(250, 150,   0)'  d='M226.7,389.9 L226.7,282.9 L230.9,282.9 L230.9,389.9 L226.7,389.9 Z  '/>	<g stroke='none' shape-rendering='crispEdges'>
		<polygon fill = 'rgb(250, 150,   0)' points = '259.7,389.9 264.0,389.9 264.0,306.0 259.7,306.0 '/>
	</g>
	<path stroke='rgb(250, 150,   0)'  d='M259.7,389.9 L259.7,306.1 L263.9,306.1 L263.9,389.9 L259.7,389.9 Z  '/>	<g stroke='none' shape-rendering='crispEdges'>
		<polygon fill = 'rgb(250, 150,   0)' points = '292.7,389.9 297.1,389.9 297.1,362.9 292.7,362.9 '/>
	</g>
	<path stroke='rgb(250, 150,   0)'  d='M292.7,389.9 L292.7,363.0 L297.0,363.0 L297.0,389.9 L292.7,389.9 Z  '/>	<g stroke='none' shape-rendering='crispEdges'>
		<polygon fill = 'rgb(250, 150,   0)' points = '325.7,389.9 330.1,389.9 330.1,236.9 325.7,236.9 '/>
	</g>
	<path stroke='rgb(250, 150,   0)'  d='M325.7,389.9 L325.7,237.0 L330.0,237.0 L330.0,389.9 L325.7,389.9 Z  '/>	<g stroke='none' shape-rendering='crispEdges'>
		<polygon fill = 'rgb(250, 150,   0)' points = '358.8,389.9 363.1,389.9 363.1,346.0 358.8,346.0 '/>
	</g>
	<path stroke='rgb(250, 150,   0)'  d='M358.8,389.9 L358.8,346.1 L363.0,346.1 L363.0,389.9 L358.8,389.9 Z  '/>	<g stroke='none' shape-rendering='crispEdges'>
		<polygon fill = 'rgb(250, 150,   0)' points = '391.8,389.9 396.1,389.9 396.1,339.3 391.8,339.3 '/>
	</g>
	<path stroke='rgb(250, 150,   0)'  d='M391.8,389.9 L391.8,339.4 L396.0,339.4 L396.0,389.9 L391.8,389.9 Z  '/>	<g stroke='none' shape-rendering='crispEdges'>
		<polygon fill = 'rgb(250, 150,   0)' points = '424.8,389.9 429.1,389.9 429.1,257.9 424.8,257.9 '/>
	</g>
	<path stroke='rgb(250, 150,   0)'  d='M424.8,389.9 L424.8,258.0 L429.0,258.0 L429.0,389.9 L424.8,389.9 Z  '/>	<g stroke='none' shape-rendering='crispEdges'>
		<polygon fill = 'rgb(250, 150,   0)' points = '457.8,389.9 462.2,389.9 462.2,248.5 457.8,248.5 '/>
	</g>
	<path stroke='rgb(250, 150,   0)'  d='M457.8,389.9 L457.8,248.6 L462.1,248.6 L462.1,389.9 L457.8,389.9 Z  '/>	<g stroke='none' shape-rendering='crispEdges'>
		<polygon fill = 'rgb(250, 150,   0)' points = '490.8,389.9 495.2,389.9 495.2,377.6 490.8,377.6 '/>
	</g>
	<path stroke='rgb(250, 150,   0)'  d='M490.8,389.9 L490.8,377.7 L495.1,377.7 L495.1,389.9 L490.8,389.9 Z  '/>	<g stroke='none' shape-rendering='crispEdges'>
		<polygon fill = 'rgb(250, 150,   0)' points = '523.9,389.9 528.2,389.9 528.2,358.6 523.9,358.6 '/>
	</g>
	<path stroke='rgb(250, 150,   0)'  d='M523.9,389.9 L523.9,358.7 L528.1,358.7 L528.1,389.9 L523.9,389.9 Z  '/>	<g stroke='none' shape-rendering='crispEdges'>
		<polygon fill = 'rgb(250, 150,   0)' points = '556.9,389.9 561.2,389.9 561.2,370.8 556.9,370.8 '/>
	</g>
	<path stroke='rgb(250, 150,   0)'  d='M556.9,389.9 L556.9,370.9 L561.1,370.9 L561.1,389.9 L556.9,389.9 Z  '/></g>
	</g>
	<g id="gnuplot_plot_4" ><title>js60</title>
<g fill="none" color="black" stroke="currentColor" stroke-width="1.00" stroke-linecap="butt" stroke-linejoin="miter">
	<g transform="translate(346.7,470.6)" stroke="none" fill="black" font-family="Verdana" font-size="8.00"  text-anchor="end">
		<text><tspan font-family="Verdana" >js60</tspan></text>
	</g>
</g>
<g fill="none" color="black" stroke="currentColor" stroke-width="1.00" stroke-linecap="butt" stroke-linejoin="miter">
	<g stroke='none' shape-rendering='crispEdges'>
		<polygon fill = 'rgb( 16, 147,  24)' points = '352.2,471.0 380.2,471.0 380.2,465.0 352.2,465.0 '/>
	</g>
	<path stroke='rgb( 16, 147,  24)'  d='M352.2,471.0 L380.2,471.0 L380.2,465.0 L352.2,465.0 L352.2,471.0 Z  '/></g>
<g fill="none" color="black" stroke="currentColor" stroke-width="1.00" stroke-linecap="butt" stroke-linejoin="miter">
	<g stroke='none' shape-rendering='crispEdges'>
		<polygon fill = 'rgb( 16, 147,  24)' points = '66.3,389.9 70.6,389.9 70.6,187.1 66.3,187.1 '/>
	</g>
	<path stroke='rgb( 16, 147,  24)'  d='M66.3,389.9 L66.3,187.2 L70.5,187.2 L70.5,389.9 L66.3,389.9 Z  '/>	<g stroke='none' shape-rendering='crispEdges'>
		<polygon fill = 'rgb( 16, 147,  24)' points = '99.3,389.9 103.6,389.9 103.6,298.1 99.3,298.1 '/>
	</g>
	<path stroke='rgb( 16, 147,  24)'  d='M99.3,389.9 L99.3,298.2 L103.5,298.2 L103.5,389.9 L99.3,389.9 Z  '/>	<g stroke='none' shape-rendering='crispEdges'>
		<polygon fill = 'rgb( 16, 147,  24)' points = '132.3,389.9 136.7,389.9 136.7,227.7 132.3,227.7 '/>
	</g>
	<path stroke='rgb( 16, 147,  24)'  d='M132.3,389.9 L132.3,227.8 L136.6,227.8 L136.6,389.9 L132.3,389.9 Z  '/>	<g stroke='none' shape-rendering='crispEdges'>
		<polygon fill = 'rgb( 16, 147,  24)' points = '165.3,389.9 169.7,389.9 169.7,152.9 165.3,152.9 '/>
	</g>
	<path stroke='rgb( 16, 147,  24)'  d='M165.3,389.9 L165.3,153.0 L169.6,153.0 L169.6,389.9 L165.3,389.9 Z  '/>	<g stroke='none' shape-rendering='crispEdges'>
		<polygon fill = 'rgb( 16, 147,  24)' points = '198.4,389.9 202.7,389.9 202.7,217.3 198.4,217.3 '/>
	</g>
	<path stroke='rgb( 16, 147,  24)'  d='M198.4,389.9 L198.4,217.4 L202.6,217.4 L202.6,389.9 L198.4,389.9 Z  '/>	<g stroke='none' shape-rendering='crispEdges'>
		<polygon fill = 'rgb( 16, 147,  24)' points = '231.4,389.9 235.7,389.9 235.7,189.2 231.4,189.2 '/>
	</g>
	<path stroke='rgb( 16, 147,  24)'  d='M231.4,389.9 L231.4,189.3 L235.6,189.3 L235.6,389.9 L231.4,389.9 Z  '/>	<g stroke='none' shape-rendering='crispEdges'>
		<polygon fill = 'rgb( 16, 147,  24)' points = '264.4,389.9 268.7,389.9 268.7,104.7 264.4,104.7 '/>
	</g>
	<path stroke='rgb( 16, 147,  24)'  d='M264.4,389.9 L264.4,104.8 L268.6,104.8 L268.6,389.9 L264.4,389.9 Z  '/>	<g stroke='none' shape-rendering='crispEdges'>
		<polygon fill = 'rgb( 16, 147,  24)' points = '297.4,389.9 301.8,389.9 301.8,218.5 297.4,218.5 '/>
	</g>
	<path stroke='rgb( 16, 147,  24)'  d='M297.4,389.9 L297.4,218.6 L301.7,218.6 L301.7,389.9 L297.4,389.9 Z  '/>	<g stroke='none' shape-rendering='crispEdges'>
		<polygon fill = 'rgb( 16, 147,  24)' points = '330.4,389.9 334.8,389.9 334.8,138.9 330.4,138.9 '/>
	</g>
	<path stroke='rgb( 16, 147,  24)'  d='M330.4,389.9 L330.4,139.0 L334.7,139.0 L334.7,389.9 L330.4,389.9 Z  '/>	<g stroke='none' shape-rendering='crispEdges'>
		<polygon fill = 'rgb( 16, 147,  24)' points = '363.5,389.9 367.8,389.9 367.8,150.0 363.5,150.0 '/>
	</g>
	<path stroke='rgb( 16, 147,  24)'  d='M363.5,389.9 L363.5,150.1 L367.7,150.1 L367.7,389.9 L363.5,389.9 Z  '/>	<g stroke='none' shape-rendering='crispEdges'>
		<polygon fill = 'rgb( 16, 147,  24)' points = '396.5,389.9 400.8,389.9 400.8,279.1 396.5,279.1 '/>
	</g>
	<path stroke='rgb( 16, 147,  24)'  d='M396.5,389.9 L396.5,279.2 L400.7,279.2 L400.7,389.9 L396.5,389.9 Z  '/>	<g stroke='none' shape-rendering='crispEdges'>
		<polygon fill = 'rgb( 16, 147,  24)' points = '429.5,389.9 433.9,389.9 433.9,120.9 429.5,120.9 '/>
	</g>
	<path stroke='rgb( 16, 147,  24)'  d='M429.5,389.9 L429.5,121.0 L433.8,121.0 L433.8,389.9 L429.5,389.9 Z  '/>	<g stroke='none' shape-rendering='crispEdges'>
		<polygon fill = 'rgb( 16, 147,  24)' points = '462.5,389.9 466.9,389.9 466.9,224.3 462.5,224.3 '/>
	</g>
	<path stroke='rgb( 16, 147,  24)'  d='M462.5,389.9 L462.5,224.4 L466.8,224.4 L466.8,389.9 L462.5,389.9 Z  '/>	<g stroke='none' shape-rendering='crispEdges'>
		<polygon fill = 'rgb( 16, 147,  24)' points = '495.6,389.9 499.9,389.9 499.9,194.6 495.6,194.6 '/>
	</g>
	<path stroke='rgb( 16, 147,  24)'  d='M495.6,389.9 L495.6,194.7 L499.8,194.7 L499.8,389.9 L495.6,389.9 Z  '/>	<g stroke='none' shape-rendering='crispEdges'>
		<polygon fill = 'rgb( 16, 147,  24)' points = '528.6,389.9 532.9,389.9 532.9,213.4 528.6,213.4 '/>
	</g>
	<path stroke='rgb( 16, 147,  24)'  d='M528.6,389.9 L528.6,213.5 L532.8,213.5 L532.8,389.9 L528.6,389.9 Z  '/>	<g stroke='none' shape-rendering='crispEdges'>
		<polygon fill = 'rgb( 16, 147,  24)' points = '561.6,389.9 566.0,389.9 566.0,263.9 561.6,263.9 '/>
	</g>
	<path stroke='rgb( 16, 147,  24)'  d='M561.6,389.9 L561.6,264.0 L565.9,264.0 L565.9,389.9 L561.6,389.9 Z  '/></g>
	</g>
	<g id="gnuplot_plot_5" ><title>jsc</title>
<g fill="none" color="black" stroke="currentColor" stroke-width="1.00" stroke-linecap="butt" stroke-linejoin="miter">
	<g transform="translate(418.7,470.6)" stroke="none" fill="black" font-family="Verdana" font-size="8.00"  text-anchor="end">
		<text><tspan font-family="Verdana" >jsc</tspan></text>
	</g>
</g>
<g fill="none" color="black" stroke="currentColor" stroke-width="1.00" stroke-linecap="butt" stroke-linejoin="miter">
	<g stroke='none' shape-rendering='crispEdges'>
		<polygon fill = 'rgb(150,   0, 150)' points = '424.2,471.0 452.2,471.0 452.2,465.0 424.2,465.0 '/>
	</g>
	<path stroke='rgb(150,   0, 150)'  d='M424.2,471.0 L452.2,471.0 L452.2,465.0 L424.2,465.0 L424.2,471.0 Z  '/></g>
<g fill="none" color="black" stroke="currentColor" stroke-width="1.00" stroke-linecap="butt" stroke-linejoin="miter">
	<g stroke='none' shape-rendering='crispEdges'>
		<polygon fill = 'rgb(150,   0, 150)' points = '71.0,389.9 75.3,389.9 75.3,190.8 71.0,190.8 '/>
	</g>
	<path stroke='rgb(150,   0, 150)'  d='M71.0,389.9 L71.0,190.9 L75.2,190.9 L75.2,389.9 L71.0,389.9 Z  '/>	<g stroke='none' shape-rendering='crispEdges'>
		<polygon fill = 'rgb(150,   0, 150)' points = '104.0,389.9 108.3,389.9 108.3,283.0 104.0,283.0 '/>
	</g>
	<path stroke='rgb(150,   0, 150)'  d='M104.0,389.9 L104.0,283.1 L108.2,283.1 L108.2,389.9 L104.0,389.9 Z  '/>	<g stroke='none' shape-rendering='crispEdges'>
		<polygon fill = 'rgb(150,   0, 150)' points = '137.0,389.9 141.4,389.9 141.4,202.6 137.0,202.6 '/>
	</g>
	<path stroke='rgb(150,   0, 150)'  d='M137.0,389.9 L137.0,202.7 L141.3,202.7 L141.3,389.9 L137.0,389.9 Z  '/>	<g stroke='none' shape-rendering='crispEdges'>
		<polygon fill = 'rgb(150,   0, 150)' points = '170.0,389.9 174.4,389.9 174.4,142.1 170.0,142.1 '/>
	</g>
	<path stroke='rgb(150,   0, 150)'  d='M170.0,389.9 L170.0,142.2 L174.3,142.2 L174.3,389.9 L170.0,389.9 Z  '/>	<g stroke='none' shape-rendering='crispEdges'>
		<polygon fill = 'rgb(150,   0, 150)' points = '203.1,389.9 207.4,389.9 207.4,210.9 203.1,210.9 '/>
	</g>
	<path stroke='rgb(150,   0, 150)'  d='M203.1,389.9 L203.1,211.0 L207.3,211.0 L207.3,389.9 L203.1,389.9 Z  '/>	<g stroke='none' shape-rendering='crispEdges'>
		<polygon fill = 'rgb(150,   0, 150)' points = '236.1,389.9 240.4,389.9 240.4,174.5 236.1,174.5 '/>
	</g>
	<path stroke='rgb(150,   0, 150)'  d='M236.1,389.9 L236.1,174.6 L240.3,174.6 L240.3,389.9 L236.1,389.9 Z  '/>	<g stroke='none' shape-rendering='crispEdges'>
		<polygon fill = 'rgb(150,   0, 150)' points = '269.1,389.9 273.5,389.9 273.5,128.8 269.1,128.8 '/>
	</g>
	<path stroke='rgb(150,   0, 150)'  d='M269.1,389.9 L269.1,128.9 L273.4,128.9 L273.4,389.9 L269.1,389.9 Z  '/>	<g stroke='none' shape-rendering='crispEdges'>
		<polygon fill = 'rgb(150,   0, 150)' points = '302.1,389.9 306.5,389.9 306.5,204.8 302.1,204.8 '/>
	</g>
	<path stroke='rgb(150,   0, 150)'  d='M302.1,389.9 L302.1,204.9 L306.4,204.9 L306.4,389.9 L302.1,389.9 Z  '/>	<g stroke='none' shape-rendering='crispEdges'>
		<polygon fill = 'rgb(150,   0, 150)' points = '335.2,389.9 339.5,389.9 339.5,125.0 335.2,125.0 '/>
	</g>
	<path stroke='rgb(150,   0, 150)'  d='M335.2,389.9 L335.2,125.1 L339.4,125.1 L339.4,389.9 L335.2,389.9 Z  '/>	<g stroke='none' shape-rendering='crispEdges'>
		<polygon fill = 'rgb(150,   0, 150)' points = '368.2,389.9 372.5,389.9 372.5,147.9 368.2,147.9 '/>
	</g>
	<path stroke='rgb(150,   0, 150)'  d='M368.2,389.9 L368.2,148.0 L372.4,148.0 L372.4,389.9 L368.2,389.9 Z  '/>	<g stroke='none' shape-rendering='crispEdges'>
		<polygon fill = 'rgb(150,   0, 150)' points = '401.2,389.9 405.6,389.9 405.6,233.3 401.2,233.3 '/>
	</g>
	<path stroke='rgb(150,   0, 150)'  d='M401.2,389.9 L401.2,233.4 L405.5,233.4 L405.5,389.9 L401.2,389.9 Z  '/>	<g stroke='none' shape-rendering='crispEdges'>
		<polygon fill = 'rgb(150,   0, 150)' points = '434.2,389.9 438.6,389.9 438.6,110.6 434.2,110.6 '/>
	</g>
	<path stroke='rgb(150,   0, 150)'  d='M434.2,389.9 L434.2,110.7 L438.5,110.7 L438.5,389.9 L434.2,389.9 Z  '/>	<g stroke='none' shape-rendering='crispEdges'>
		<polygon fill = 'rgb(150,   0, 150)' points = '467.3,389.9 471.6,389.9 471.6,131.9 467.3,131.9 '/>
	</g>
	<path stroke='rgb(150,   0, 150)'  d='M467.3,389.9 L467.3,132.0 L471.5,132.0 L471.5,389.9 L467.3,389.9 Z  '/>	<g stroke='none' shape-rendering='crispEdges'>
		<polygon fill = 'rgb(150,   0, 150)' points = '500.3,389.9 504.6,389.9 504.6,189.9 500.3,189.9 '/>
	</g>
	<path stroke='rgb(150,   0, 150)'  d='M500.3,389.9 L500.3,190.0 L504.5,190.0 L504.5,389.9 L500.3,389.9 Z  '/>	<g stroke='none' shape-rendering='crispEdges'>
		<polygon fill = 'rgb(150,   0, 150)' points = '533.3,389.9 537.7,389.9 537.7,240.4 533.3,240.4 '/>
	</g>
	<path stroke='rgb(150,   0, 150)'  d='M533.3,389.9 L533.3,240.5 L537.6,240.5 L537.6,389.9 L533.3,389.9 Z  '/>	<g stroke='none' shape-rendering='crispEdges'>
		<polygon fill = 'rgb(150,   0, 150)' points = '566.3,389.9 570.7,389.9 570.7,240.5 566.3,240.5 '/>
	</g>
	<path stroke='rgb(150,   0, 150)'  d='M566.3,389.9 L566.3,240.6 L570.6,240.6 L570.6,389.9 L566.3,389.9 Z  '/></g>
	</g>
	<g id="gnuplot_plot_6" ><title>v8</title>
<g fill="none" color="black" stroke="currentColor" stroke-width="1.00" stroke-linecap="butt" stroke-linejoin="miter">
	<g transform="translate(490.7,470.6)" stroke="none" fill="black" font-family="Verdana" font-size="8.00"  text-anchor="end">
		<text><tspan font-family="Verdana" >v8</tspan></text>
	</g>
</g>
<g fill="none" color="black" stroke="currentColor" stroke-width="1.00" stroke-linecap="butt" stroke-linejoin="miter">
	<g stroke='none' shape-rendering='crispEdges'>
		<polygon fill = 'rgb(  0, 150, 194)' points = '496.2,471.0 524.2,471.0 524.2,465.0 496.2,465.0 '/>
	</g>
	<path stroke='rgb(  0, 150, 194)'  d='M496.2,471.0 L524.2,471.0 L524.2,465.0 L496.2,465.0 L496.2,471.0 Z  '/></g>
<g fill="none" color="black" stroke="currentColor" stroke-width="1.00" stroke-linecap="butt" stroke-linejoin="miter">
	<g stroke='none' shape-rendering='crispEdges'>
		<polygon fill = 'rgb(  0, 150, 194)' points = '75.7,389.9 80.0,389.9 80.0,205.8 75.7,205.8 '/>
	</g>
	<path stroke='rgb(  0, 150, 194)'  d='M75.7,389.9 L75.7,205.9 L79.9,205.9 L79.9,389.9 L75.7,389.9 Z  '/>	<g stroke='none' shape-rendering='crispEdges'>
		<polygon fill = 'rgb(  0, 150, 194)' points = '108.7,389.9 113.1,389.9 113.1,329.7 108.7,329.7 '/>
	</g>
	<path stroke='rgb(  0, 150, 194)'  d='M108.7,389.9 L108.7,329.8 L113.0,329.8 L113.0,389.9 L108.7,389.9 Z  '/>	<g stroke='none' shape-rendering='crispEdges'>
		<polygon fill = 'rgb(  0, 150, 194)' points = '141.7,389.9 146.1,389.9 146.1,293.5 141.7,293.5 '/>
	</g>
	<path stroke='rgb(  0, 150, 194)'  d='M141.7,389.9 L141.7,293.6 L146.0,293.6 L146.0,389.9 L141.7,389.9 Z  '/>	<g stroke='none' shape-rendering='crispEdges'>
		<polygon fill = 'rgb(  0, 150, 194)' points = '174.8,389.9 179.1,389.9 179.1,179.1 174.8,179.1 '/>
	</g>
	<path stroke='rgb(  0, 150, 194)'  d='M174.8,389.9 L174.8,179.2 L179.0,179.2 L179.0,389.9 L174.8,389.9 Z  '/>	<g stroke='none' shape-rendering='crispEdges'>
		<polygon fill = 'rgb(  0, 150, 194)' points = '207.8,389.9 212.1,389.9 212.1,224.6 207.8,224.6 '/>
	</g>
	<path stroke='rgb(  0, 150, 194)'  d='M207.8,389.9 L207.8,224.7 L212.0,224.7 L212.0,389.9 L207.8,389.9 Z  '/>	<g stroke='none' shape-rendering='crispEdges'>
		<polygon fill = 'rgb(  0, 150, 194)' points = '240.8,389.9 245.2,389.9 245.2,189.2 240.8,189.2 '/>
	</g>
	<path stroke='rgb(  0, 150, 194)'  d='M240.8,389.9 L240.8,189.3 L245.1,189.3 L245.1,389.9 L240.8,389.9 Z  '/>	<g stroke='none' shape-rendering='crispEdges'>
		<polygon fill = 'rgb(  0, 150, 194)' points = '273.8,389.9 278.2,389.9 278.2,234.7 273.8,234.7 '/>
	</g>
	<path stroke='rgb(  0, 150, 194)'  d='M273.8,389.9 L273.8,234.8 L278.1,234.8 L278.1,389.9 L273.8,389.9 Z  '/>	<g stroke='none' shape-rendering='crispEdges'>
		<polygon fill = 'rgb(  0, 150, 194)' points = '306.9,389.9 311.2,389.9 311.2,262.7 306.9,262.7 '/>
	</g>
	<path stroke='rgb(  0, 150, 194)'  d='M306.9,389.9 L306.9,262.8 L311.1,262.8 L311.1,389.9 L306.9,389.9 Z  '/>	<g stroke='none' shape-rendering='crispEdges'>
		<polygon fill = 'rgb(  0, 150, 194)' points = '339.9,389.9 344.2,389.9 344.2,204.5 339.9,204.5 '/>
	</g>
	<path stroke='rgb(  0, 150, 194)'  d='M339.9,389.9 L339.9,204.6 L344.1,204.6 L344.1,389.9 L339.9,389.9 Z  '/>	<g stroke='none' shape-rendering='crispEdges'>
		<polygon fill = 'rgb(  0, 150, 194)' points = '372.9,389.9 377.3,389.9 377.3,260.7 372.9,260.7 '/>
	</g>
	<path stroke='rgb(  0, 150, 194)'  d='M372.9,389.9 L372.9,260.8 L377.2,260.8 L377.2,389.9 L372.9,389.9 Z  '/>	<g stroke='none' shape-rendering='crispEdges'>
		<polygon fill = 'rgb(  0, 150, 194)' points = '405.9,389.9 410.3,389.9 410.3,328.3 405.9,328.3 '/>
	</g>
	<path stroke='rgb(  0, 150, 194)'  d='M405.9,389.9 L405.9,328.4 L410.2,328.4 L410.2,389.9 L405.9,389.9 Z  '/>	<g stroke='none' shape-rendering='crispEdges'>
		<polygon fill = 'rgb(  0, 150, 194)' points = '439.0,389.9 443.3,389.9 443.3,167.0 439.0,167.0 '/>
	</g>
	<path stroke='rgb(  0, 150, 194)'  d='M439.0,389.9 L439.0,167.1 L443.2,167.1 L443.2,389.9 L439.0,389.9 Z  '/>	<g stroke='none' shape-rendering='crispEdges'>
		<polygon fill = 'rgb(  0, 150, 194)' points = '472.0,389.9 476.3,389.9 476.3,183.2 472.0,183.2 '/>
	</g>
	<path stroke='rgb(  0, 150, 194)'  d='M472.0,389.9 L472.0,183.3 L476.2,183.3 L476.2,389.9 L472.0,389.9 Z  '/>	<g stroke='none' shape-rendering='crispEdges'>
		<polygon fill = 'rgb(  0, 150, 194)' points = '505.0,389.9 509.3,389.9 509.3,286.1 505.0,286.1 '/>
	</g>
	<path stroke='rgb(  0, 150, 194)'  d='M505.0,389.9 L505.0,286.2 L509.2,286.2 L509.2,389.9 L505.0,389.9 Z  '/>	<g stroke='none' shape-rendering='crispEdges'>
		<polygon fill = 'rgb(  0, 150, 194)' points = '538.0,389.9 542.4,389.9 542.4,317.4 538.0,317.4 '/>
	</g>
	<path stroke='rgb(  0, 150, 194)'  d='M538.0,389.9 L538.0,317.5 L542.3,317.5 L542.3,389.9 L538.0,389.9 Z  '/>	<g stroke='none' shape-rendering='crispEdges'>
		<polygon fill = 'rgb(  0, 150, 194)' points = '571.0,389.9 575.4,389.9 575.4,337.1 571.0,337.1 '/>
	</g>
	<path stroke='rgb(  0, 150, 194)'  d='M571.0,389.9 L571.0,337.2 L575.3,337.2 L575.3,389.9 L571.0,389.9 Z  '/></g>
	</g>
<g fill="none" color="white" stroke="rgb(  0, 150, 194)" stroke-width="2.00" stroke-linecap="butt" stroke-linejoin="miter">
</g>
<g fill="none" color="black" stroke="currentColor" stroke-width="2.00" stroke-linecap="butt" stroke-linejoin="miter">
</g>
<g fill="none" color="black" stroke="black" stroke-width="1.00" stroke-linecap="butt" stroke-linejoin="miter">
</g>
<g fill="none" color="black" stroke="currentColor" stroke-width="1.00" stroke-linecap="butt" stroke-linejoin="miter">
	<path stroke='black'  d='M33.0,36.1 L33.0,389.9 L594.4,389.9 L594.4,36.1 L33.0,36.1 Z  '/></g>
<g fill="none" color="black" stroke="currentColor" stroke-width="1.00" stroke-linecap="butt" stroke-linejoin="miter">
</g>
</g>
</svg>

