{
   "name": "hopfullcache",
   "version": "@COMPILER@ --eval \"(begin (print (hop-version) (if (=fx (hop-max-threads) 1) \\\"-st\\\" \\\"-mt\\\")) (exit 0))\"",
   "cmd": "@COMPILER@ -Ox @PATH@ -o @TMP@/@NAME@ @EXTRAOPTS@",
   "run": "@TMP@/@NAME@ -",
   "compiler": "/tmp/HOPFULLCACHE/bin/hopc",
   "iteration": 3
}
