[
  {
    "name": "bague",
    "subtitle": false,
    "path": "bglstone/bague.js",
    "args": false,
    "engines": [
      {
        "name": "nodejs",
        "version": "v10.17.0",
        "host": "redrock",
        "platform": "linux",
        "cmd": "nodejs bglstone/bague.js",
        "logs": [
          {
            "date": "2020-01-11T11:06:24.404Z",
            "times": {
              "ustimes": [1260,1260,1270,1210,1230,1250,1210,1220,1260,1260,1260,1230,1240,1260,1240,1220,1280,1230,1250,1230,1220,1230,1260,1210,1220,1220,1230,1200,1220,1220],
              "rtimes": [1250,1220,1250,1200,1210,1230,1200,1200,1240,1240,1240,1230,1220,1220,1240,1200,1250,1210,1230,1200,1200,1210,1240,1210,1200,1200,1210,1200,1210,1200]
            },
            "time": 1200
          }
        ]
      },
      {
        "name": "js60",
        "version": "",
        "host": "redrock",
        "platform": "linux",
        "cmd": "js60 /tmp/bague-js60.js",
        "logs": [
          {
            "date": "2020-01-11T11:06:24.404Z",
            "times": {
              "ustimes": [770,760,770,770,750,770,760,760,760,760,770,770,760,760,760,760,760,750,770,760,760,760,760,760,770,760,770,760,770,770],
              "rtimes": [770,750,750,740,750,750,750,740,760,740,760,740,750,750,740,760,740,750,750,750,750,750,740,750,750,750,760,750,750,750]
            },
            "time": 750
          }
        ]
      },
      {
        "name": "jsc",
        "version": "",
        "host": "redrock",
        "platform": "linux",
        "cmd": "jsc /tmp/bague-jsc.js --",
        "logs": [
          {
            "date": "2020-01-11T11:06:24.404Z",
            "times": {
              "ustimes": [1120,1150,1120,1180,1150,1120,1140,1130,1140,1110,1130,1140,1110,1150,1140,1120,1130,1130,1150,1140,1150,1130,1190,1130,1170,1120,1110,1130,1130,1160],
              "rtimes": [1080,1120,1090,1130,1100,1090,1110,1080,1090,1080,1100,1100,1080,1110,1100,1090,1080,1090,1120,1120,1110,1110,1150,1090,1130,1110,1080,1090,1100,1110]
            },
            "time": 1110
          }
        ]
      },
      {
        "name": "hop",
        "version": "3.3.0-mt",
        "host": "redrock",
        "platform": "linux",
        "cmd": "/tmp/bague -",
        "logs": [
          {
            "date": "2020-01-11T11:06:24.404Z",
            "times": {
              "ustimes": [690,680,700,700,720,710,700,700,680,690,700,700,700,670,730,690,690,710,690,710,690,700,690,690,680,680,700,690,710,710],
              "rtimes": [680,680,690,690,710,700,680,700,690,680,680,700,700,670,690,690,680,690,680,700,700,670,690,680,680,680,680,690,690,690]
            },
            "time": 670
          }
        ]
      },
      {
        "name": "chakra",
        "version": "",
        "host": "redrock",
        "platform": "linux",
        "cmd": "ch /tmp/bague-chakra.js -args",
        "logs": [
          {
            "date": "2020-01-11T11:06:24.404Z",
            "times": {
              "ustimes": [2350,2370,2320,2390,2320,2340,2410,2330,2390,2360,2340,2360,2370,2350,2380,2400,2380,2340,2300,2340,2340,2320,2330,2360,2330,2330,2410,2340,2320,2340],
              "rtimes": [2340,2360,2330,2380,2350,2340,2400,2330,2390,2340,2340,2350,2350,2340,2380,2400,2390,2340,2300,2330,2340,2320,2320,2350,2320,2320,2400,2330,2320,2350]
            },
            "time": 2300
          }
        ]
      },
      {
        "name": "graal",
        "version": "v10.15.2",
        "host": "redrock",
        "platform": "linux",
        "cmd": "/opt/JS/GRAAL/graalvm-ce-19.1.1/bin/node bglstone/bague.js",
        "logs": [
          {
            "date": "2020-01-11T11:06:24.404Z",
            "times": {
              "ustimes": [4950,4920,4890,4850,4950,4920,4950,4980,4910,4890,4910,4920,4920,4910,4960,4890,4940,4970,4870,4930,4930,4930,4870,4900,4870,4890,4900,4910,4890,4970],
              "rtimes": [4340,4320,4300,4320,4350,4330,4340,4380,4330,4320,4320,4330,4320,4330,4360,4330,4340,4340,4320,4330,4330,4310,4300,4310,4300,4340,4320,4340,4310,4370]
            },
            "time": 4850
          }
        ]
      },
      {
        "name": "hopnoscache",
        "version": "3.3.0-mt",
        "host": "redrock",
        "platform": "linux",
        "cmd": "/tmp/bague -",
        "logs": [
          {
            "date": "2020-01-11T11:06:24.404Z",
            "times": {
              "ustimes": [680,670,710,690,700,720,670,710,690,700,680,690,670,690,700,690,690,690,710,700,710,690,680,680,670,690,690,710,670,670],
              "rtimes": [690,660,690,660,680,690,660,690,680,670,670,680,670,680,680,700,680,680,690,680,680,680,670,660,670,680,670,690,670,680]
            },
            "time": 670
          }
        ]
      },
      {
        "name": "hopnopcache",
        "version": "3.3.0-mt",
        "host": "redrock",
        "platform": "linux",
        "cmd": "/tmp/bague -",
        "logs": [
          {
            "date": "2020-01-11T11:06:24.404Z",
            "times": {
              "ustimes": [720,690,680,680,680,710,690,720,680,670,710,700,710,700,700,700,710,690,680,710,680,690,730,680,700,690,710,660,700,710],
              "rtimes": [700,680,690,680,680,680,690,710,670,690,700,680,680,660,680,690,690,680,670,690,660,690,690,670,660,690,690,690,690,690]
            },
            "time": 660
          }
        ]
      },
      {
        "name": "hopnoopt",
        "version": "3.3.0-mt",
        "host": "redrock",
        "platform": "linux",
        "cmd": "/tmp/bague -",
        "logs": [
          {
            "date": "2020-01-11T11:06:24.404Z",
            "times": {
              "ustimes": [710,710,710,710,660,720,690,700,680,690,710,680,730,710,680,710,680,710,700,680,690,690,720,700,700,700,710,670,710,690],
              "rtimes": [690,690,690,680,670,690,690,680,680,670,670,670,690,680,680,680,670,690,680,670,680,670,700,680,680,670,680,670,680,690]
            },
            "time": 660
          }
        ]
      },
      {
        "name": "hopfullcache",
        "version": "3.3.0-mt",
        "host": "redrock",
        "platform": "linux",
        "cmd": "/tmp/bague -",
        "logs": [
          {
            "date": "2020-01-11T11:06:24.404Z",
            "times": {
              "ustimes": [690,710,700,710,710,710,720,710,720,710,680,690,700,680,710,680,700,710,690,690,680,710,690,690,710,670,690,710,700,690],
              "rtimes": [680,680,690,670,710,690,700,700,710,660,680,670,680,670,700,690,670,680,680,680,690,690,670,660,670,680,690,670,680,670]
            },
            "time": 670
          }
        ]
      }
    ]
  }
]