[
  {
    "name": "binary-tree-proxy",
    "subtitle": false,
    "path": "proxy/binary-tree-proxy.js",
    "args": false,
    "engines": [
      {
        "name": "nodejs",
        "version": "v10.17.0",
        "host": "redrock",
        "platform": "linux",
        "cmd": "nodejs proxy/binary-tree-proxy.js",
        "logs": [
          {
            "date": "2020-01-10T05:14:27.946Z",
            "times": {
              "ustimes": [9600,9640,9560,9590,9590,9680,9580,9600,9660,9520,9630,9580,9640,9590,9640,9740,9550,9650,9640,9550,9610,9640,9560,9570,9680,9660,9590,9540,9610,9570],
              "rtimes": [9140,9160,9090,9090,9170,9220,9110,9130,9150,9080,9130,9090,9170,9140,9100,9270,9120,9170,9180,9110,9150,9150,9100,9110,9230,9150,9110,9110,9130,9110]
            },
            "time": 9520
          }
        ]
      },
      {
        "name": "js60",
        "version": "",
        "host": "redrock",
        "platform": "linux",
        "cmd": "js60 /tmp/binary-tree-proxy-js60.js",
        "logs": [
          {
            "date": "2020-01-10T05:14:27.946Z",
            "times": {
              "ustimes": [37920,37220,37420,37830,37470,38490,37810,36740,37660,37350,37310,37380,36950,37780,37030,38200,36400,36890,37940,37970,37550,37750,37070,37160,36850,37410,36890,38330,38040,36930],
              "rtimes": [38150,37290,37500,38000,37630,38660,37910,36920,37920,37520,37490,37380,37020,37940,37170,38290,36580,36940,38060,38060,37600,37890,37180,37290,36860,37440,37100,38330,38050,37130]
            },
            "time": 36400
          }
        ]
      },
      {
        "name": "jsc",
        "version": "",
        "host": "redrock",
        "platform": "linux",
        "cmd": "jsc /tmp/binary-tree-proxy-jsc.js --",
        "logs": [
          {
            "date": "2020-01-10T05:14:27.946Z",
            "times": {
              "ustimes": [39810,39050,38760,38490,38810,38710,38720,38480,39170,38790,39420,39000,38960,38920,38270,38850,38770,38460,39060,38760,39450,38610,39290,39510,38570,38690,42820,38860,39320,38790],
              "rtimes": [37980,37010,36720,36700,36970,36670,36860,36490,37250,36840,37540,37030,36930,37030,36420,36940,36730,36730,37030,36880,37530,36670,37210,37610,36850,37060,40970,37050,37530,36860]
            },
            "time": 38270
          }
        ]
      },
      {
        "name": "hop",
        "version": "3.3.0-mt",
        "host": "redrock",
        "platform": "linux",
        "cmd": "/tmp/binary-tree-proxy -",
        "logs": [
          {
            "date": "2020-01-10T05:14:27.946Z",
            "times": {
              "ustimes": [23040,27260,23480,23370,23010,27140,27140,23040,26630,26900,23080,27470,22880,27980,22960,22640,23110,27400,22900,27020,27920,23080,26650,27710,23200,23040,27150,27270,27080,23560],
              "rtimes": [9430,9950,9350,9390,9380,9900,9900,9300,10410,10110,9240,10100,9360,10080,9600,9710,9910,10090,9360,9750,10110,9670,10090,10150,9500,9400,10020,9950,9870,9440]
            },
            "time": 22640
          }
        ]
      },
      {
        "name": "chakra",
        "version": "",
        "host": "redrock",
        "platform": "linux",
        "cmd": "ch /tmp/binary-tree-proxy-chakra.js -args",
        "logs": [
          {
            "date": "2020-01-10T05:14:27.946Z",
            "times": {
              "ustimes": [33440,33720,38530,41220,38580,34440,38730,38980,33550,38490,41300,36280,36880,35940,34420,34350,36260,40710,33890,41190,36220,33890,36130,34220,33570,34290,33710,33950,34210,33860],
              "rtimes": [32650,32910,37660,40240,37750,33570,37860,38120,32650,37680,40430,35460,36060,35060,33600,33450,35430,39800,33060,40290,35400,33070,35290,33320,32710,33500,32890,33030,33360,33000]
            },
            "time": 33440
          }
        ]
      },
      {
        "name": "graal",
        "version": "v10.15.2",
        "host": "redrock",
        "platform": "linux",
        "cmd": "/opt/JS/GRAAL/graalvm-ce-19.1.1/bin/node proxy/binary-tree-proxy.js",
        "logs": [
          {
            "date": "2020-01-10T05:14:27.946Z",
            "times": {
              "ustimes": [9470,9530,9440,9430,9530,9530,9470,9500,9440,9440,9550,9480,9400,9560,9490,9550,9490,9550,9400,9550,9460,9560,9530,9660,9490,9560,9520,9530,9560,9530],
              "rtimes": [7920,7920,7950,7810,7960,7950,7920,7940,7920,7950,8030,7940,7880,7980,7960,7960,7980,7990,7810,8000,7950,7940,7970,8100,7950,8000,8010,7910,8000,7990]
            },
            "time": 9400
          }
        ]
      },
      {
        "name": "hopnoscache",
        "version": "3.3.0-mt",
        "host": "redrock",
        "platform": "linux",
        "cmd": "/tmp/binary-tree-proxy -",
        "logs": [
          {
            "date": "2020-01-10T05:14:27.946Z",
            "times": {
              "ustimes": [30030,30890,31120,30770,30650,31400,30320,31080,30660,30730,31410,30360,30560,31180,30150,31660,30110,30350,30830,30320,31150,30200,30170,30680,30720,30420,30670,30310,30490,31560],
              "rtimes": [13020,13140,13250,13900,13620,13550,13170,13270,13400,13780,13220,13160,13270,13330,13720,13400,13080,13160,13060,13220,13370,13590,13310,13190,13230,13070,13620,13990,13250,13280]
            },
            "time": 30030
          }
        ]
      },
      {
        "name": "hopnopcache",
        "version": "3.3.0-mt",
        "host": "redrock",
        "platform": "linux",
        "cmd": "/tmp/binary-tree-proxy -",
        "logs": [
          {
            "date": "2020-01-10T05:14:27.946Z",
            "times": {
              "ustimes": [29770,29910,29660,29530,24470,29960,24280,24790,29400,29180,29630,29970,30680,29960,30070,29290,24490,24540,29970,24510,29750,29410,29640,29780,29860,30460,29830,29190,29720,24400],
              "rtimes": [12140,12230,12410,12580,11450,12140,11330,11710,12140,11910,12250,12220,12390,12280,12250,12680,11510,11480,12070,11510,12160,12870,12640,12060,12030,12270,12090,12620,12170,11420]
            },
            "time": 24280
          }
        ]
      },
      {
        "name": "hopnoopt",
        "version": "3.3.0-mt",
        "host": "redrock",
        "platform": "linux",
        "cmd": "/tmp/binary-tree-proxy -",
        "logs": [
          {
            "date": "2020-01-10T05:14:27.946Z",
            "times": {
              "ustimes": [53250,52650,52780,53320,53010,52070,52170,44650,52920,43590,52800,49950,43990,51600,53840,51970,44340,52080,52150,53450,52810,51110,51860,51940,43680,52460,44090,44650,52920,53620],
              "rtimes": [19400,19670,20010,19560,19410,19970,19810,18610,19410,19550,20010,21690,19760,20380,20320,20500,19430,20190,19580,19740,19790,20890,20500,20150,19110,19960,19100,18580,19940,19910]
            },
            "time": 43590
          }
        ]
      },
      {
        "name": "hopfullcache",
        "version": "3.3.0-mt",
        "host": "redrock",
        "platform": "linux",
        "cmd": "/tmp/binary-tree-proxy -",
        "logs": [
          {
            "date": "2020-01-10T05:14:27.946Z",
            "times": {
              "ustimes": [87010,86570,84420,86190,86080,86790,85060,85250,87030,84790,84780,88120,84950,86730,85830,88310,86730,87260,84640,87280,87530,86180,84760,87390,86370,86380,85610,86930,86850,85950],
              "rtimes": [31200,31180,31000,32790,32270,32040,31310,30970,31670,30780,30650,31470,31330,31660,30760,32670,30690,31760,30660,30880,30800,30670,30400,31540,30840,32160,30520,31110,30940,30850]
            },
            "time": 84420
          }
        ]
      }
    ]
  }
]