[
  {
    "name": "crypto-md5-proxy",
    "subtitle": false,
    "path": "proxy/crypto-md5-proxy.js",
    "args": false,
    "engines": [
      {
        "name": "nodejs",
        "version": "v10.17.0",
        "host": "redrock",
        "platform": "linux",
        "cmd": "nodejs proxy/crypto-md5-proxy.js",
        "logs": [
          {
            "date": "2020-01-10T11:06:22.350Z",
            "times": {
              "ustimes": [51480,51000,46720,48190,46830,48330,51380,46850,51080,47850,61710,47910,46850,48850,49400,47860,46680,48700,46500,50720,51630,51820,46710,48990,46520,46790,47840,47770,46560,53440],
              "rtimes": [51460,50950,46670,48160,46800,48280,51340,46830,51030,47790,61670,47870,46810,48800,49360,47800,46640,48650,46470,50660,51590,51780,46650,48940,46490,46730,47790,47730,46540,53400]
            },
            "time": 46500
          }
        ]
      },
      {
        "name": "js60",
        "version": "",
        "host": "redrock",
        "platform": "linux",
        "cmd": "js60 /tmp/crypto-md5-proxy-js60.js",
        "logs": [
          {
            "date": "2020-01-10T11:06:22.350Z",
            "times": {
              "ustimes": [40820,40710,41100,41400,41330,40850,41110,40760,40810,40920,41100,41170,40900,40920,41280,41170,42980,41450,41370,41210,41360,40820,40600,41070,41580,41040,41150,40750,41210,40800],
              "rtimes": [40470,40370,40740,41110,41030,40530,40760,40370,40380,40640,40750,40770,40620,40500,40910,40820,42670,41180,41060,40870,41110,40470,40320,40700,41220,40730,40780,40460,40930,40470]
            },
            "time": 40600
          }
        ]
      },
      {
        "name": "jsc",
        "version": "",
        "host": "redrock",
        "platform": "linux",
        "cmd": "jsc /tmp/crypto-md5-proxy-jsc.js --",
        "logs": [
          {
            "date": "2020-01-10T11:06:22.350Z",
            "times": {
              "ustimes": [45640,45640,46200,47380,45840,52860,46800,45740,46020,45420,46500,45150,46240,46740,45290,46110,45970,46240,46740,47690,47170,45320,47010,45530,45450,45720,45280,46050,45350,47190],
              "rtimes": [45510,45540,46080,47210,45770,52760,46640,45580,45910,45270,46330,45030,46130,46620,45190,45900,45870,46130,46610,47560,47030,45180,46940,45400,45340,45620,45180,46000,45270,47080]
            },
            "time": 45150
          }
        ]
      },
      {
        "name": "hop",
        "version": "3.3.0-mt",
        "host": "redrock",
        "platform": "linux",
        "cmd": "/tmp/crypto-md5-proxy -",
        "logs": [
          {
            "date": "2020-01-10T11:06:22.350Z",
            "times": {
              "ustimes": [9960,9920,9930,9890,10230,10330,10120,10350,10550,10490,10440,10390,10320,10120,10240,9970,10280,10310,10170,9970,9880,10180,10240,10070,9900,9860,10250,10090,10140,10190],
              "rtimes": [9060,9060,9010,9010,9360,9430,9220,9550,9860,9740,9700,9580,9600,9320,9440,9130,9390,9550,9410,9130,9010,9380,9330,9190,9050,9010,9370,9310,9360,9340]
            },
            "time": 9860
          }
        ]
      },
      {
        "name": "chakra",
        "version": "",
        "host": "redrock",
        "platform": "linux",
        "cmd": "ch /tmp/crypto-md5-proxy-chakra.js -args",
        "logs": [
          {
            "date": "2020-01-10T11:06:22.350Z",
            "times": {
              "ustimes": [50960,54700,52650,52110,54130,53920,52090,51360,54880,51530,54390,56860,54760,58140,57080,55470,51410,54880,51740,51540,51450,53480,54670,54630,51150,51180,51170,54670,54480,51300],
              "rtimes": [50830,54560,52500,51990,53990,53780,51960,51220,54840,51400,54250,56760,54630,58020,57030,55430,51360,54730,51690,51420,51320,53340,54620,54500,51120,51040,51020,54610,54340,51200]
            },
            "time": 50960
          }
        ]
      },
      {
        "name": "graal",
        "version": "v10.15.2",
        "host": "redrock",
        "platform": "linux",
        "cmd": "/opt/JS/GRAAL/graalvm-ce-19.1.1/bin/node proxy/crypto-md5-proxy.js",
        "logs": [
          {
            "date": "2020-01-10T11:06:22.350Z",
            "times": {
              "ustimes": [59460,60620,60470,61090,61340,61440,63100,61370,62900,59980,60080,61810,60510,62570,61110,60850,60000,59870,61110,61240,61340,61610,60560,60810,59580,59800,60910,62520,60830,61440],
              "rtimes": [51290,52080,52070,54730,52650,52760,56410,54480,56440,51880,51440,53020,52470,53890,52440,52200,51920,51450,54740,54480,54940,52870,54200,54540,51590,51830,52690,53670,52100,53030]
            },
            "time": 59460
          }
        ]
      },
      {
        "name": "hopnoscache",
        "version": "3.3.0-mt",
        "host": "redrock",
        "platform": "linux",
        "cmd": "/tmp/crypto-md5-proxy -",
        "logs": [
          {
            "date": "2020-01-10T11:06:22.350Z",
            "times": {
              "ustimes": [9840,9790,9850,9740,9840,9780,9760,9840,9970,9870,9890,9770,9740,9820,9760,9770,9740,9850,9750,9770,9790,9780,9820,9770,9880,9770,9900,9780,9870,9780],
              "rtimes": [8930,8940,8990,8890,9000,8920,8870,8990,9060,9040,9040,8900,8840,8940,8930,8910,8880,9030,8890,8900,8910,8890,8940,8900,8980,8880,8990,8930,8970,8920]
            },
            "time": 9740
          }
        ]
      },
      {
        "name": "hopnopcache",
        "version": "3.3.0-mt",
        "host": "redrock",
        "platform": "linux",
        "cmd": "/tmp/crypto-md5-proxy -",
        "logs": [
          {
            "date": "2020-01-10T11:06:22.350Z",
            "times": {
              "ustimes": [12960,13100,13120,13030,13110,13130,13190,13040,13050,13170,13160,13080,13100,13040,13070,13120,13080,12990,13060,13060,13060,13090,13050,13460,13420,13050,14900,13100,13050,13090],
              "rtimes": [12170,12210,12180,12190,12280,12210,12280,12150,12150,12340,12280,12220,12210,12160,12160,12250,12230,12110,12160,12180,12160,12200,12170,12560,12570,12190,14020,12220,12230,12210]
            },
            "time": 12960
          }
        ]
      },
      {
        "name": "hopnoopt",
        "version": "3.3.0-mt",
        "host": "redrock",
        "platform": "linux",
        "cmd": "/tmp/crypto-md5-proxy -",
        "logs": [
          {
            "date": "2020-01-10T11:06:22.350Z",
            "times": {
              "ustimes": [11030,10980,11010,10900,11030,10970,11020,10990,10950,10980,10870,11080,11020,10990,10940,10960,10920,11280,10980,10920,10980,11060,10960,10940,10930,10980,10970,10960,11060,11020],
              "rtimes": [10190,10070,10120,10040,10190,10130,10160,10080,10070,10120,10040,10220,10160,10060,10040,10080,10060,10390,10120,10030,10100,10170,10040,10040,10100,10100,10080,10080,10230,10140]
            },
            "time": 10870
          }
        ]
      },
      {
        "name": "hopfullcache",
        "version": "3.3.0-mt",
        "host": "redrock",
        "platform": "linux",
        "cmd": "/tmp/crypto-md5-proxy -",
        "logs": [
          {
            "date": "2020-01-10T11:06:22.350Z",
            "times": {
              "ustimes": [9990,10020,9980,9980,10030,10000,9960,9880,9960,9990,9980,10010,9940,9950,9930,10340,9970,10040,10010,9970,9930,10010,10020,9990,10010,9940,10210,9930,9910,9940],
              "rtimes": [9120,9140,9090,9050,9180,9160,9070,9010,9080,9090,9100,9130,9100,9040,9070,9450,9060,9140,9130,9080,9030,9100,9140,9080,9100,9050,9270,9000,9020,9060]
            },
            "time": 9880
          }
        ]
      }
    ]
  }
]