[
  {
    "name": "crypto-sha1",
    "subtitle": false,
    "path": "jetstream/crypto-sha1.js",
    "args": false,
    "engines": [
      {
        "name": "nodejs",
        "version": "v10.17.0",
        "host": "redrock",
        "platform": "linux",
        "cmd": "nodejs jetstream/crypto-sha1.js",
        "logs": [
          {
            "date": "2020-01-11T12:42:09.558Z",
            "times": {
              "ustimes": [1020,1020,990,1000,1010,1020,1000,1020,990,1000,980,1010,990,1000,980,1000,1000,980,990,1010,1000,990,1000,990,1000,1020,990,980,1000,1010],
              "rtimes": [1030,1020,1000,1010,1000,1000,1010,1010,1000,1000,1000,1000,1000,1010,1000,1000,1010,1000,1000,1010,1010,1000,1010,1000,1000,1010,1000,1000,1000,1000]
            },
            "time": 980
          }
        ]
      },
      {
        "name": "js60",
        "version": "",
        "host": "redrock",
        "platform": "linux",
        "cmd": "js60 /tmp/crypto-sha1-js60.js",
        "logs": [
          {
            "date": "2020-01-11T12:42:09.558Z",
            "times": {
              "ustimes": [880,870,860,880,890,880,910,870,900,880,870,880,890,890,880,860,850,860,870,850,850,870,860,860,870,860,880,890,860,880],
              "rtimes": [880,860,870,880,880,870,900,870,900,890,860,870,890,900,860,870,850,860,860,860,860,870,860,860,860,870,860,880,860,870]
            },
            "time": 850
          }
        ]
      },
      {
        "name": "jsc",
        "version": "",
        "host": "redrock",
        "platform": "linux",
        "cmd": "jsc /tmp/crypto-sha1-jsc.js --",
        "logs": [
          {
            "date": "2020-01-11T12:42:09.558Z",
            "times": {
              "ustimes": [850,850,810,840,830,840,890,820,820,820,800,790,850,850,860,840,870,810,840,820,850,870,830,830,850,790,840,820,880,830],
              "rtimes": [740,750,720,740,730,720,750,730,730,750,740,720,740,730,770,740,750,710,750,740,760,750,740,760,740,710,720,730,770,750]
            },
            "time": 790
          }
        ]
      },
      {
        "name": "hop",
        "version": "3.3.0-mt",
        "host": "redrock",
        "platform": "linux",
        "cmd": "/tmp/crypto-sha1 -",
        "logs": [
          {
            "date": "2020-01-11T12:42:09.558Z",
            "times": {
              "ustimes": [2100,1670,2100,1680,1660,1690,1670,1690,1670,1650,1690,1680,1700,1690,1670,1640,1680,2080,1680,1660,1670,1680,2070,1670,1660,1670,2080,1670,1670,2100],
              "rtimes": [1180,1120,1170,1120,1120,1120,1110,1120,1100,1120,1120,1120,1120,1130,1120,1100,1140,1290,1200,1160,1110,1110,1190,1190,1200,1180,1150,1110,1110,1180]
            },
            "time": 1640
          }
        ]
      },
      {
        "name": "chakra",
        "version": "",
        "host": "redrock",
        "platform": "linux",
        "cmd": "ch /tmp/crypto-sha1-chakra.js -args",
        "logs": [
          {
            "date": "2020-01-11T12:42:09.558Z",
            "times": {
              "ustimes": [970,920,940,960,960,960,960,960,960,930,950,960,950,980,950,950,970,960,950,990,990,950,930,910,940,930,980,970,940,970],
              "rtimes": [1020,1000,990,990,980,1020,980,980,990,980,1000,990,970,990,1000,1010,990,1010,1000,1000,990,990,990,980,990,990,990,990,980,990]
            },
            "time": 910
          }
        ]
      },
      {
        "name": "graal",
        "version": "v10.15.2",
        "host": "redrock",
        "platform": "linux",
        "cmd": "/opt/JS/GRAAL/graalvm-ce-19.1.1/bin/node jetstream/crypto-sha1.js",
        "logs": [
          {
            "date": "2020-01-11T12:42:09.558Z",
            "times": {
              "ustimes": [5570,5620,5640,5650,5650,5810,5590,5540,5690,5590,5640,5580,5640,5630,5610,5620,5570,5640,5650,5590,5620,5590,5520,5650,5570,5630,5570,5560,5630,5720],
              "rtimes": [4850,4900,4890,4920,4900,5000,4870,4870,4900,4890,4930,4850,4920,4880,4870,4890,4850,4910,4900,4910,4870,4870,4840,4910,4870,4910,4860,4860,4900,4980]
            },
            "time": 5520
          }
        ]
      },
      {
        "name": "hopnoscache",
        "version": "3.3.0-mt",
        "host": "redrock",
        "platform": "linux",
        "cmd": "/tmp/crypto-sha1 -",
        "logs": [
          {
            "date": "2020-01-11T12:42:09.558Z",
            "times": {
              "ustimes": [2110,1690,2070,2060,2120,2150,2080,2060,2070,1650,1710,2080,2140,2110,1700,1660,2050,2080,1690,2080,2100,2070,1660,2130,2130,2100,2080,2090,2080,2090],
              "rtimes": [1170,1100,1180,1170,1200,1210,1180,1140,1150,1110,1140,1180,1170,1180,1130,1120,1160,1160,1130,1160,1180,1180,1090,1190,1180,1170,1170,1190,1170,1170]
            },
            "time": 1650
          }
        ]
      },
      {
        "name": "hopnopcache",
        "version": "3.3.0-mt",
        "host": "redrock",
        "platform": "linux",
        "cmd": "/tmp/crypto-sha1 -",
        "logs": [
          {
            "date": "2020-01-11T12:42:09.558Z",
            "times": {
              "ustimes": [1650,1700,1660,2110,1680,2110,1640,2120,1660,1660,2150,1650,1700,2010,1700,2160,2090,2150,1730,1630,1720,1680,2100,1680,2120,1640,1690,2110,2110,1650],
              "rtimes": [1100,1160,1100,1180,1100,1190,1170,1310,1220,1170,1190,1100,1110,1150,1130,1220,1190,1190,1150,1100,1130,1130,1170,1130,1190,1120,1160,1170,1220,1140]
            },
            "time": 1630
          }
        ]
      },
      {
        "name": "hopnoopt",
        "version": "3.3.0-mt",
        "host": "redrock",
        "platform": "linux",
        "cmd": "/tmp/crypto-sha1 -",
        "logs": [
          {
            "date": "2020-01-11T12:42:09.558Z",
            "times": {
              "ustimes": [1640,2050,2110,2130,2080,1670,2070,2070,2050,2040,1680,1630,1650,2090,2060,2060,2100,2090,2120,1610,2030,1650,1570,2080,2110,2000,2020,2010,2040,2110],
              "rtimes": [1080,1150,1180,1170,1130,1090,1140,1130,1130,1130,1090,1090,1060,1140,1140,1160,1150,1150,1140,1070,1160,1070,1060,1120,1160,1120,1120,1100,1190,1180]
            },
            "time": 1570
          }
        ]
      },
      {
        "name": "hopfullcache",
        "version": "3.3.0-mt",
        "host": "redrock",
        "platform": "linux",
        "cmd": "/tmp/crypto-sha1 -",
        "logs": [
          {
            "date": "2020-01-11T12:42:09.558Z",
            "times": {
              "ustimes": [1590,2060,2030,2100,2110,1670,2070,2010,2160,1660,1640,2070,1680,1690,2110,2090,2080,1630,2060,1640,2120,2110,1670,1650,2150,1670,2100,2080,1680,2070],
              "rtimes": [1180,1310,1150,1180,1180,1160,1290,1230,1190,1100,1090,1150,1110,1120,1160,1190,1160,1100,1160,1090,1190,1150,1110,1090,1260,1120,1160,1150,1110,1140]
            },
            "time": 1590
          }
        ]
      }
    ]
  }
]