[
  {
    "name": "forinobj-switch",
    "subtitle": "switch",
    "path": "micro/forinobj.js",
    "args": "switch",
    "engines": [
      {
        "name": "nodejs",
        "version": "v10.17.0",
        "host": "redrock",
        "platform": "linux",
        "cmd": "nodejs micro/forinobj.js",
        "logs": [
          {
            "date": "2020-01-09T19:30:16.158Z",
            "times": {
              "ustimes": [5510,5530,5520,5510,5500,5510,5520,5530,5550,5540,5530,5510,5510,5490,5500,5500,5490,5510,5510,5540,5500,5490,5520,5520,5530,5520,5500,5480,5510,5530],
              "rtimes": [5530,5540,5520,5500,5510,5500,5550,5540,5550,5570,5540,5540,5520,5510,5510,5520,5510,5510,5520,5540,5520,5520,5560,5560,5520,5520,5520,5510,5510,5530]
            },
            "time": 5480
          }
        ]
      }
    ]
  },
  {
    "name": "forinobj-switch",
    "subtitle": "switch",
    "path": "micro/forinobj.js",
    "args": "switch",
    "engines": [
      {
        "name": "js60",
        "version": "",
        "host": "redrock",
        "platform": "linux",
        "cmd": "js60 /tmp/forinobj-js60.js",
        "logs": [
          {
            "date": "2020-01-09T19:30:16.158Z",
            "times": {
              "ustimes": [18780,18760,18760,18770,18760,18740,18840,18770,18870,18820,18800,18740,18840,18820,18770,18730,18720,18730,18800,18890,18760,18770,18750,18730,18770,18760,18740,18820,18750,18740],
              "rtimes": [18760,18750,18750,18750,18730,18720,18800,18760,18880,18800,18770,18720,18830,18810,18740,18710,18710,18720,18770,18880,18720,18750,18730,18700,18750,18740,18710,18800,18730,18710]
            },
            "time": 18720
          }
        ]
      }
    ]
  },
  {
    "name": "forinobj-switch",
    "subtitle": "switch",
    "path": "micro/forinobj.js",
    "args": "switch",
    "engines": [
      {
        "name": "jsc",
        "version": "",
        "host": "redrock",
        "platform": "linux",
        "cmd": "jsc /tmp/forinobj-jsc.js --",
        "logs": [
          {
            "date": "2020-01-09T19:30:16.158Z",
            "times": {
              "ustimes": [3040,2950,3390,3400,3380,3370,2930,2870,2860,2860,2940,3060,2850,3020,3370,3400,2910,2860,2920,2870,3370,3040,3400,3380,3030,3390,2850,2850,3370,2930],
              "rtimes": [3030,2930,3380,3380,3370,3360,2910,2860,2860,2840,2930,3030,2830,3000,3370,3380,2880,2840,2920,2850,3360,3010,3390,3360,3020,3370,2820,2840,3370,2930]
            },
            "time": 2850
          }
        ]
      }
    ]
  },
  {
    "name": "forinobj-switch",
    "subtitle": "switch",
    "path": "micro/forinobj.js",
    "args": "switch",
    "engines": [
      {
        "name": "hop",
        "version": "3.3.0-mt",
        "host": "redrock",
        "platform": "linux",
        "cmd": "/tmp/forinobj -",
        "logs": [
          {
            "date": "2020-01-09T19:30:16.158Z",
            "times": {
              "ustimes": [11090,11050,10970,11160,11130,10990,11070,11090,11000,11080,10970,10880,11130,11080,11120,11080,11100,11070,11100,10980,11110,11060,11090,11010,11220,11070,11010,11130,11090,11050],
              "rtimes": [7350,7490,7450,7420,7400,7420,7400,7410,7350,7410,7630,7620,7470,7380,7390,7450,7390,7390,7350,7310,7700,7600,7420,7340,7490,7360,7360,7460,7520,7360]
            },
            "time": 10880
          }
        ]
      }
    ]
  },
  {
    "name": "forinobj-switch",
    "subtitle": "switch",
    "path": "micro/forinobj.js",
    "args": "switch",
    "engines": [
      {
        "name": "chakra",
        "version": "",
        "host": "redrock",
        "platform": "linux",
        "cmd": "ch /tmp/forinobj-chakra.js -args",
        "logs": [
          {
            "date": "2020-01-09T19:30:16.158Z",
            "times": {
              "ustimes": [31670,31980,31750,32060,32320,31800,32090,31810,32200,32220,32080,32290,32220,32290,32030,31750,31920,31790,31870,32290,32290,31940,31570,31450,32140,32010,31570,31960,32030,31460],
              "rtimes": [31650,31980,31750,32070,32310,31780,32080,31790,32190,32200,32070,32280,32220,32280,32020,31740,31910,31780,31850,32290,32280,31930,31550,31450,32140,31990,31570,31960,32020,31450]
            },
            "time": 31450
          }
        ]
      }
    ]
  },
  {
    "name": "forinobj-switch",
    "subtitle": "switch",
    "path": "micro/forinobj.js",
    "args": "switch",
    "engines": [
      {
        "name": "graal",
        "version": "v10.15.2",
        "host": "redrock",
        "platform": "linux",
        "cmd": "/opt/JS/GRAAL/graalvm-ce-19.1.1/bin/node micro/forinobj.js",
        "logs": [
          {
            "date": "2020-01-09T19:30:16.158Z",
            "times": {
              "ustimes": [29050,28410,28640,29320,28500,29280,28110,28520,28360,28460,27880,28760,29200,28860,28280,28150,29620,28480,28120,28680,29460,28890,28660,28620,29010,28850,28580,29550,28050,28150],
              "rtimes": [28720,28160,28360,29040,28210,28980,27820,28250,28030,28180,27560,28420,28930,28550,28010,27850,29330,28210,27840,28370,29180,28580,28390,28280,28720,28530,28280,29240,27740,27860]
            },
            "time": 27880
          }
        ]
      }
    ]
  },
  {
    "name": "forinobj-switch",
    "subtitle": "switch",
    "path": "micro/forinobj.js",
    "args": "switch",
    "engines": [
      {
        "name": "hopnoscache",
        "version": "3.3.0-mt",
        "host": "redrock",
        "platform": "linux",
        "cmd": "/tmp/forinobj -",
        "logs": [
          {
            "date": "2020-01-09T19:30:16.158Z",
            "times": {
              "ustimes": [11140,11030,10950,10940,10980,11100,11040,11230,11080,10980,11020,11070,11000,11060,11160,10940,11060,12270,11180,11090,11050,10980,11060,11000,10970,11010,11050,11100,10970,11130],
              "rtimes": [7500,7380,7280,7330,7490,7520,7380,7450,7370,7370,7480,7410,7320,7400,7440,7380,7460,8560,7370,7420,7320,7350,7410,7340,7350,7300,7410,7410,7600,7500]
            },
            "time": 10940
          }
        ]
      }
    ]
  },
  {
    "name": "forinobj-switch",
    "subtitle": "switch",
    "path": "micro/forinobj.js",
    "args": "switch",
    "engines": [
      {
        "name": "hopnopcache",
        "version": "3.3.0-mt",
        "host": "redrock",
        "platform": "linux",
        "cmd": "/tmp/forinobj -",
        "logs": [
          {
            "date": "2020-01-09T19:30:16.158Z",
            "times": {
              "ustimes": [10970,11120,10910,11120,11240,10980,11020,11090,11020,11080,11110,10900,11140,11090,10990,11170,11110,11130,11110,10970,11110,11050,12600,11450,11000,10940,10930,10980,10990,11060],
              "rtimes": [7360,7520,7660,7460,7480,7450,7330,7420,7650,7410,7540,7500,7740,7400,7320,7470,7420,7430,7410,7340,7430,7690,8960,7800,7300,7320,7360,7320,7310,7310]
            },
            "time": 10900
          }
        ]
      }
    ]
  },
  {
    "name": "forinobj-switch",
    "subtitle": "switch",
    "path": "micro/forinobj.js",
    "args": "switch",
    "engines": [
      {
        "name": "hopnoopt",
        "version": "3.3.0-mt",
        "host": "redrock",
        "platform": "linux",
        "cmd": "/tmp/forinobj -",
        "logs": [
          {
            "date": "2020-01-09T19:30:16.158Z",
            "times": {
              "ustimes": [11190,11140,11310,11200,11060,11250,11170,11220,11320,11290,11360,11150,11110,11280,11260,11160,11280,11220,11000,11190,11380,11230,11110,11210,11200,11350,11300,11350,11270,11170],
              "rtimes": [7520,7540,7590,7640,7510,7540,7830,7560,7660,7630,7650,7520,7570,7570,7550,7620,7530,7550,7490,7620,7620,7640,7700,7580,7580,7630,7650,7800,7610,7570]
            },
            "time": 11000
          }
        ]
      }
    ]
  },
  {
    "name": "forinobj-switch",
    "subtitle": "switch",
    "path": "micro/forinobj.js",
    "args": "switch",
    "engines": [
      {
        "name": "hopfullcache",
        "version": "3.3.0-mt",
        "host": "redrock",
        "platform": "linux",
        "cmd": "/tmp/forinobj -",
        "logs": [
          {
            "date": "2020-01-09T19:30:16.158Z",
            "times": {
              "ustimes": [11030,11080,10940,11030,10990,11530,10970,11220,10960,10970,10950,11030,10910,10940,10990,11040,11060,11020,11000,10940,11020,10970,11120,11090,11010,11020,10960,11120,11040,11110],
              "rtimes": [7370,7440,7540,7360,7340,7790,7400,7770,7410,7290,7540,7590,7560,7360,7390,7360,7400,7410,7380,7340,7540,7450,7490,7420,7380,7360,7320,7480,7390,7390]
            },
            "time": 10910
          }
        ]
      }
    ]
  }
]