[
  {
    "name": "forkeysarr",
    "subtitle": false,
    "path": "micro/forkeysarr.js",
    "args": false,
    "engines": [
      {
        "name": "nodejs",
        "version": "v10.17.0",
        "host": "redrock",
        "platform": "linux",
        "cmd": "nodejs micro/forkeysarr.js",
        "logs": [
          {
            "date": "2020-01-09T17:44:52.949Z",
            "times": {
              "ustimes": [1600,1600,1580,1580,1580,1580,1590,1580,1590,1600,1610,1610,1590,1590,1590,1590,1590,1600,1590,1580,1600,1590,1590,1590,1590,1590,1580,1590,1580,1590],
              "rtimes": [1640,1620,1610,1590,1610,1600,1620,1600,1610,1630,1620,1620,1620,1600,1600,1600,1610,1610,1600,1610,1600,1600,1610,1600,1620,1600,1600,1600,1610,1600]
            },
            "time": 1580
          }
        ]
      },
      {
        "name": "js60",
        "version": "",
        "host": "redrock",
        "platform": "linux",
        "cmd": "js60 /tmp/forkeysarr-js60.js",
        "logs": [
          {
            "date": "2020-01-09T17:44:52.949Z",
            "times": {
              "ustimes": [610,610,620,610,610,620,600,620,610,620,610,600,610,610,610,610,610,620,610,610,620,600,610,610,610,610,610,610,610,610],
              "rtimes": [630,620,620,610,620,620,620,620,630,640,620,610,610,620,620,610,620,620,620,610,620,610,620,620,620,620,610,620,620,610]
            },
            "time": 600
          }
        ]
      },
      {
        "name": "jsc",
        "version": "",
        "host": "redrock",
        "platform": "linux",
        "cmd": "jsc /tmp/forkeysarr-jsc.js --",
        "logs": [
          {
            "date": "2020-01-09T17:44:52.949Z",
            "times": {
              "ustimes": [2610,2670,2650,2570,2580,2570,2720,2580,2610,2630,2690,2580,2560,2570,2690,2730,2610,2590,2560,2580,2560,2570,2550,2570,2570,2570,2580,2590,2580,2670],
              "rtimes": [2580,2660,2630,2570,2550,2560,2710,2580,2600,2620,2670,2560,2540,2560,2670,2720,2590,2560,2540,2560,2540,2570,2540,2550,2560,2570,2560,2590,2560,2670]
            },
            "time": 2550
          }
        ]
      },
      {
        "name": "hop",
        "version": "3.3.0-mt",
        "host": "redrock",
        "platform": "linux",
        "cmd": "/tmp/forkeysarr -",
        "logs": [
          {
            "date": "2020-01-09T17:44:52.949Z",
            "times": {
              "ustimes": [690,710,700,690,710,710,710,700,690,700,680,680,720,670,670,700,690,690,720,680,670,680,680,710,700,690,680,690,700,700],
              "rtimes": [690,680,710,670,690,720,690,690,670,690,670,680,680,670,670,690,680,690,700,670,680,680,670,670,690,690,690,690,680,680]
            },
            "time": 670
          }
        ]
      },
      {
        "name": "chakra",
        "version": "",
        "host": "redrock",
        "platform": "linux",
        "cmd": "ch /tmp/forkeysarr-chakra.js -args",
        "logs": [
          {
            "date": "2020-01-09T17:44:52.949Z",
            "times": {
              "ustimes": [5000,5090,5000,4990,5080,5020,5100,5040,5090,5080,5030,5070,5100,5080,5020,4990,5010,5000,5060,5030,5010,5020,5000,4980,5110,5110,5030,5070,5090,4980],
              "rtimes": [5020,5100,5020,5010,5070,5030,5120,5040,5110,5090,5050,5080,5110,5090,5030,5010,5020,5010,5090,5030,5030,5030,5020,4990,5130,5130,5040,5090,5100,5010]
            },
            "time": 4980
          }
        ]
      },
      {
        "name": "graal",
        "version": "v10.15.2",
        "host": "redrock",
        "platform": "linux",
        "cmd": "/opt/JS/GRAAL/graalvm-ce-19.1.1/bin/node micro/forkeysarr.js",
        "logs": [
          {
            "date": "2020-01-09T17:44:52.949Z",
            "times": {
              "ustimes": [2350,2290,2350,2400,2340,2330,2310,2320,2350,2350,2360,2370,2370,2340,2340,2350,2320,2340,2400,2370,2340,2330,2360,2380,2320,2340,2360,2370,2320,2340],
              "rtimes": [2380,2360,2380,2400,2360,2400,2360,2380,2370,2390,2380,2380,2390,2380,2380,2370,2370,2370,2390,2380,2380,2370,2380,2410,2370,2390,2390,2390,2360,2380]
            },
            "time": 2290
          }
        ]
      },
      {
        "name": "hopnoscache",
        "version": "3.3.0-mt",
        "host": "redrock",
        "platform": "linux",
        "cmd": "/tmp/forkeysarr -",
        "logs": [
          {
            "date": "2020-01-09T17:44:52.949Z",
            "times": {
              "ustimes": [750,760,760,730,760,770,740,730,750,740,730,730,730,720,730,710,770,740,740,750,750,730,720,720,760,760,760,730,740,750],
              "rtimes": [740,740,740,720,730,750,720,730,730,740,710,720,730,720,730,720,740,730,720,750,730,710,730,720,730,730,740,730,730,730]
            },
            "time": 710
          }
        ]
      },
      {
        "name": "hopnopcache",
        "version": "3.3.0-mt",
        "host": "redrock",
        "platform": "linux",
        "cmd": "/tmp/forkeysarr -",
        "logs": [
          {
            "date": "2020-01-09T17:44:52.949Z",
            "times": {
              "ustimes": [690,710,690,730,690,710,710,710,680,700,700,690,670,690,670,710,680,700,710,720,690,710,710,670,700,680,690,700,720,710],
              "rtimes": [690,700,690,690,690,700,700,690,690,690,670,690,670,680,680,670,690,690,690,680,690,690,690,680,680,690,680,680,700,680]
            },
            "time": 670
          }
        ]
      },
      {
        "name": "hopnoopt",
        "version": "3.3.0-mt",
        "host": "redrock",
        "platform": "linux",
        "cmd": "/tmp/forkeysarr -",
        "logs": [
          {
            "date": "2020-01-09T17:44:52.949Z",
            "times": {
              "ustimes": [690,710,720,690,700,720,700,690,690,710,680,690,720,710,700,700,700,690,700,700,700,720,680,700,720,690,720,700,690,720],
              "rtimes": [690,690,700,680,680,690,690,670,670,690,690,680,690,680,680,680,690,680,680,680,680,680,690,680,680,680,680,680,680,690]
            },
            "time": 680
          }
        ]
      },
      {
        "name": "hopfullcache",
        "version": "3.3.0-mt",
        "host": "redrock",
        "platform": "linux",
        "cmd": "/tmp/forkeysarr -",
        "logs": [
          {
            "date": "2020-01-09T17:44:52.949Z",
            "times": {
              "ustimes": [740,730,730,720,710,720,720,740,750,760,750,740,760,740,720,720,730,750,800,730,740,740,750,740,770,730,750,750,770,760],
              "rtimes": [720,720,720,710,730,740,720,730,720,740,730,720,730,740,720,730,730,730,790,730,730,730,730,750,750,740,750,750,750,740]
            },
            "time": 710
          }
        ]
      }
    ]
  }
]