[
  {
    "name": "hash-map",
    "subtitle": false,
    "path": "jetstream/hash-map.js",
    "args": false,
    "engines": [
      {
        "name": "nodejs",
        "version": "v10.17.0",
        "host": "redrock",
        "platform": "linux",
        "cmd": "nodejs jetstream/hash-map.js",
        "logs": [
          {
            "date": "2020-01-11T13:27:05.448Z",
            "times": {
              "ustimes": [800,840,900,850,840,850,810,840,820,810,810,790,810,820,800,860,820,800,810,830,840,830,840,830,840,850,830,800,840,830],
              "rtimes": [770,800,840,800,790,830,780,800,760,760,760,760,760,760,770,790,770,770,760,770,800,760,800,780,770,800,760,790,760,760]
            },
            "time": 790
          }
        ]
      },
      {
        "name": "js60",
        "version": "",
        "host": "redrock",
        "platform": "linux",
        "cmd": "js60 /tmp/hash-map-js60.js",
        "logs": [
          {
            "date": "2020-01-11T13:27:05.448Z",
            "times": {
              "ustimes": [450,430,420,430,410,410,430,430,430,410,430,420,450,430,430,450,420,410,410,430,410,420,430,420,430,420,420,430,420,440],
              "rtimes": [420,400,400,410,410,400,400,430,400,410,420,400,430,410,400,420,410,400,400,400,420,410,400,400,410,400,410,400,400,400]
            },
            "time": 410
          }
        ]
      },
      {
        "name": "jsc",
        "version": "",
        "host": "redrock",
        "platform": "linux",
        "cmd": "jsc /tmp/hash-map-jsc.js --",
        "logs": [
          {
            "date": "2020-01-11T13:27:05.448Z",
            "times": {
              "ustimes": [500,530,510,520,480,490,520,500,480,510,500,510,500,500,510,490,530,490,510,510,500,500,480,510,510,520,500,490,490,540],
              "rtimes": [420,430,440,410,410,410,420,410,410,430,440,430,430,420,430,430,450,430,420,420,420,420,410,420,410,440,420,420,420,440]
            },
            "time": 480
          }
        ]
      },
      {
        "name": "hop",
        "version": "3.3.0-mt",
        "host": "redrock",
        "platform": "linux",
        "cmd": "/tmp/hash-map -",
        "logs": [
          {
            "date": "2020-01-11T13:27:05.448Z",
            "times": {
              "ustimes": [1930,1870,1910,1940,1910,1910,1900,1920,1910,1920,1920,1910,1900,1930,1960,1920,1920,1910,1900,1900,1900,1880,1920,1890,1910,1910,1870,1920,1930,1940],
              "rtimes": [1750,1750,1750,1740,1730,1740,1740,1740,1740,1740,1730,1730,1740,1750,1740,1730,1750,1730,1730,1730,1740,1730,1750,1740,1740,1750,1730,1740,1750,1790]
            },
            "time": 1870
          }
        ]
      },
      {
        "name": "chakra",
        "version": "",
        "host": "redrock",
        "platform": "linux",
        "cmd": "ch /tmp/hash-map-chakra.js -args",
        "logs": [
          {
            "date": "2020-01-11T13:27:05.448Z",
            "times": {
              "ustimes": [1300,1310,1250,1320,1350,1230,1260,1310,1230,1280,1250,1330,1270,1320,1260,1290,1240,1380,1270,1310,1240,1420,1320,1260,1310,1250,1250,1240,1270,1310],
              "rtimes": [1270,1290,1250,1280,1310,1230,1250,1280,1240,1260,1240,1280,1260,1300,1260,1250,1240,1350,1260,1280,1250,1400,1270,1260,1280,1260,1250,1230,1250,1270]
            },
            "time": 1230
          }
        ]
      },
      {
        "name": "graal",
        "version": "v10.15.2",
        "host": "redrock",
        "platform": "linux",
        "cmd": "/opt/JS/GRAAL/graalvm-ce-19.1.1/bin/node jetstream/hash-map.js",
        "logs": [
          {
            "date": "2020-01-11T13:27:05.448Z",
            "times": {
              "ustimes": [2000,2010,1960,2040,2030,2030,2070,2050,2050,2080,2060,2010,1960,2040,2020,2030,1960,2030,1990,2010,2080,2050,2030,1950,1990,2060,1980,2060,2040,2050],
              "rtimes": [1440,1450,1440,1460,1450,1460,1440,1450,1470,1480,1450,1460,1430,1440,1450,1460,1420,1450,1460,1430,1500,1470,1470,1410,1460,1460,1420,1500,1440,1470]
            },
            "time": 1950
          }
        ]
      },
      {
        "name": "hopnoscache",
        "version": "3.3.0-mt",
        "host": "redrock",
        "platform": "linux",
        "cmd": "/tmp/hash-map -",
        "logs": [
          {
            "date": "2020-01-11T13:27:05.448Z",
            "times": {
              "ustimes": [1920,1910,1910,1910,1890,1880,1900,1890,1910,1900,1920,1900,1920,1910,1880,1900,1890,1890,1930,1880,1900,1930,1940,1940,1900,1910,1880,1910,1930,1920],
              "rtimes": [1740,1720,1740,1720,1720,1720,1720,1720,1720,1720,1750,1740,1770,1720,1720,1730,1720,1720,1750,1720,1720,1720,1730,1750,1720,1740,1720,1730,1730,1730]
            },
            "time": 1880
          }
        ]
      },
      {
        "name": "hopnopcache",
        "version": "3.3.0-mt",
        "host": "redrock",
        "platform": "linux",
        "cmd": "/tmp/hash-map -",
        "logs": [
          {
            "date": "2020-01-11T13:27:05.448Z",
            "times": {
              "ustimes": [1930,1920,1930,1900,1920,1920,1910,1940,1910,1940,1880,1930,1920,1910,1910,1910,1910,1920,1920,1910,1910,1900,1930,1920,1880,1910,1910,1950,1910,1920],
              "rtimes": [1730,1740,1750,1730,1740,1730,1730,1750,1730,1750,1740,1740,1740,1740,1740,1730,1730,1760,1750,1730,1760,1740,1740,1730,1740,1730,1740,1750,1740,1730]
            },
            "time": 1880
          }
        ]
      },
      {
        "name": "hopnoopt",
        "version": "3.3.0-mt",
        "host": "redrock",
        "platform": "linux",
        "cmd": "/tmp/hash-map -",
        "logs": [
          {
            "date": "2020-01-11T13:27:05.448Z",
            "times": {
              "ustimes": [1930,1900,1890,1900,1900,1930,1940,1920,1910,1890,1900,1930,1940,1910,1900,1930,1910,1920,1940,1920,1940,1880,1920,1900,1910,1920,1840,1910,1890,1880],
              "rtimes": [1730,1740,1730,1730,1740,1740,1760,1740,1730,1730,1720,1750,1750,1730,1730,1740,1730,1740,1750,1780,1780,1720,1740,1730,1740,1740,1720,1720,1730,1740]
            },
            "time": 1840
          }
        ]
      },
      {
        "name": "hopfullcache",
        "version": "3.3.0-mt",
        "host": "redrock",
        "platform": "linux",
        "cmd": "/tmp/hash-map -",
        "logs": [
          {
            "date": "2020-01-11T13:27:05.448Z",
            "times": {
              "ustimes": [1900,1930,1910,1920,1890,1900,1910,1890,1920,1900,1910,1910,1900,1900,1880,1920,1900,1910,1910,1900,1880,1910,1940,1940,1910,1920,1920,1900,1910,1900],
              "rtimes": [1720,1750,1740,1730,1730,1730,1730,1710,1730,1740,1720,1730,1730,1720,1720,1740,1720,1730,1730,1720,1710,1720,1760,1810,1760,1720,1750,1760,1750,1720]
            },
            "time": 1880
          }
        ]
      }
    ]
  }
]