[
  {
    "name": "maze-proxy",
    "subtitle": false,
    "path": "proxy/maze-proxy.js",
    "args": false,
    "engines": [
      {
        "name": "nodejs",
        "version": "v10.17.0",
        "host": "redrock",
        "platform": "linux",
        "cmd": "nodejs proxy/maze-proxy.js",
        "logs": [
          {
            "date": "2020-01-10T21:56:49.804Z",
            "times": {
              "ustimes": [19910,20020,19890,19930,19690,20070,20490,19880,19850,19360,19600,19660,19660,19780,19810,19630,19660,19950,19930,19840,19700,19950,19610,19980,19800,20080,20200,20550,19600,19790],
              "rtimes": [15400,15510,15350,15440,15220,15420,16120,15490,15230,15100,15230,15230,15290,15350,15340,15180,15220,15400,15460,15350,15330,15420,15270,15450,15280,15460,15580,15980,15130,15220]
            },
            "time": 19360
          }
        ]
      },
      {
        "name": "js60",
        "version": "",
        "host": "redrock",
        "platform": "linux",
        "cmd": "js60 /tmp/maze-proxy-js60.js",
        "logs": [
          {
            "date": "2020-01-10T21:56:49.804Z",
            "times": {
              "ustimes": [57280,57920,58270,57620,57840,57960,58270,58140,57060,57560,57600,57210,56820,59750,57810,57440,57290,57450,57950,57690,57820,57910,58420,57350,57400,58200,57850,58100,57350,57570],
              "rtimes": [57220,57830,58290,57460,57820,57860,58270,58100,56990,57440,57530,57090,56760,59640,57620,57380,57130,57340,57870,57640,57780,57860,58390,57270,57370,58030,57790,58110,57230,57590]
            },
            "time": 56820
          }
        ]
      },
      {
        "name": "jsc",
        "version": "",
        "host": "redrock",
        "platform": "linux",
        "cmd": "jsc /tmp/maze-proxy-jsc.js --",
        "logs": [
          {
            "date": "2020-01-10T21:56:49.804Z",
            "times": {
              "ustimes": [56150,56050,56710,55540,56670,56350,56900,55850,55810,58300,57170,54670,56070,55470,55510,57410,55890,56260,63250,58020,56010,55710,56810,55100,55840,55390,57210,55930,55190,56530],
              "rtimes": [49620,49770,50440,49200,50480,50160,50500,50160,49470,51770,51300,48860,49820,48990,49550,50980,49660,49980,56660,51810,49730,49750,50520,49280,49680,49390,50610,49420,49210,50910]
            },
            "time": 54670
          }
        ]
      },
      {
        "name": "hop",
        "version": "3.3.0-mt",
        "host": "redrock",
        "platform": "linux",
        "cmd": "/tmp/maze-proxy -",
        "logs": [
          {
            "date": "2020-01-10T21:56:49.804Z",
            "times": {
              "ustimes": [13450,13420,13420,13600,13450,13310,13470,13440,13460,13500,13510,13690,13530,13460,13470,13530,13540,13480,13570,13570,13330,13490,13550,13470,13540,13570,13520,13660,13570,13510],
              "rtimes": [8750,9170,8780,8750,8670,8940,8730,8760,8690,9020,8710,8850,8760,8790,8660,8760,8770,8650,8720,8740,8610,8710,8800,8720,8800,8690,8740,8800,9040,8660]
            },
            "time": 13310
          }
        ]
      },
      {
        "name": "chakra",
        "version": "",
        "host": "redrock",
        "platform": "linux",
        "cmd": "ch /tmp/maze-proxy-chakra.js -args",
        "logs": [
          {
            "date": "2020-01-10T21:56:49.804Z",
            "times": {
              "ustimes": [52400,48500,52690,48000,48510,52650,52690,48890,57080,56930,48070,48470,57180,56510,52750,48610,48520,56820,52770,52350,52450,52150,56400,48880,52900,53550,56460,53090,48690,57190],
              "rtimes": [51650,47760,51940,47230,47810,51970,51920,48120,56330,56220,47350,47720,56480,55660,52000,47910,47800,56040,51970,51610,51680,51380,55650,48150,52080,52780,55670,52280,47910,56490]
            },
            "time": 48000
          }
        ]
      },
      {
        "name": "graal",
        "version": "v10.15.2",
        "host": "redrock",
        "platform": "linux",
        "cmd": "/opt/JS/GRAAL/graalvm-ce-19.1.1/bin/node proxy/maze-proxy.js",
        "logs": [
          {
            "date": "2020-01-10T21:56:49.804Z",
            "times": {
              "ustimes": [],
              "rtimes": []
            },
            "time": -1
          }
        ]
      },
      {
        "name": "hopnoscache",
        "version": "3.3.0-mt",
        "host": "redrock",
        "platform": "linux",
        "cmd": "/tmp/maze-proxy -",
        "logs": [
          {
            "date": "2020-01-10T21:56:49.804Z",
            "times": {
              "ustimes": [16110,15940,15880,16110,15810,15900,15840,15950,16000,15910,15980,15710,16210,15970,16140,15970,16030,15980,16050,16120,16020,16070,16050,16180,15980,15900,15910,16060,16080,16060],
              "rtimes": [12350,12210,12220,12580,12120,12200,12200,12310,12250,12300,12300,12130,12500,12250,12460,12260,12320,12300,12540,12350,12270,12420,12330,12850,12300,12190,12250,12270,12450,12440]
            },
            "time": 15710
          }
        ]
      },
      {
        "name": "hopnopcache",
        "version": "3.3.0-mt",
        "host": "redrock",
        "platform": "linux",
        "cmd": "/tmp/maze-proxy -",
        "logs": [
          {
            "date": "2020-01-10T21:56:49.804Z",
            "times": {
              "ustimes": [16250,16220,16280,16180,16250,16360,16370,16260,16410,16360,16250,16230,16370,16330,16410,16260,16310,16570,16500,16130,16370,16490,16280,16250,16350,16420,16460,16420,16300,16170],
              "rtimes": [12010,12030,12050,11960,11950,12230,12070,12030,12210,12110,12040,12130,12200,11980,12040,12020,12110,12570,12240,12000,12110,12180,12130,12100,12060,12190,12100,12130,11980,11960]
            },
            "time": 16130
          }
        ]
      },
      {
        "name": "hopnoopt",
        "version": "3.3.0-mt",
        "host": "redrock",
        "platform": "linux",
        "cmd": "/tmp/maze-proxy -",
        "logs": [
          {
            "date": "2020-01-10T21:56:49.804Z",
            "times": {
              "ustimes": [71460,70850,70540,70430,71500,70070,71670,70260,71570,70440,70930,71650,71640,70920,70070,71650,69950,70970,70460,70710,71020,72350,70850,70770,71020,72350,69920,71480,70030,71360],
              "rtimes": [25530,25250,25690,25440,25610,26220,25720,25290,26030,25280,25500,25650,25450,25690,25900,25670,25300,26510,25280,25700,25680,25740,25710,25310,25350,25770,25500,25710,25880,25830]
            },
            "time": 69920
          }
        ]
      },
      {
        "name": "hopfullcache",
        "version": "3.3.0-mt",
        "host": "redrock",
        "platform": "linux",
        "cmd": "/tmp/maze-proxy -",
        "logs": [
          {
            "date": "2020-01-10T21:56:49.804Z",
            "times": {
              "ustimes": [26360,26910,26910,26270,27070,26440,26390,26250,26240,27160,26810,26710,26070,26400,26690,26440,26230,26600,26780,26730,27010,26910,26090,26330,26590,26700,26650,26770,26360,26650],
              "rtimes": [14800,15210,15070,14840,15090,14910,14850,14660,14630,15260,14820,14950,14600,14910,15050,14860,14700,15370,14890,14890,14950,15070,14790,14820,14590,14880,14820,15160,14740,14810]
            },
            "time": 26070
          }
        ]
      }
    ]
  }
]