[
  {
    "name": "puzzle-proxy",
    "subtitle": false,
    "path": "proxy/puzzle-proxy.js",
    "args": false,
    "engines": [
      {
        "name": "nodejs",
        "version": "v10.17.0",
        "host": "redrock",
        "platform": "linux",
        "cmd": "nodejs proxy/puzzle-proxy.js",
        "logs": [
          {
            "date": "2020-01-11T00:01:59.222Z",
            "times": {
              "ustimes": [54470,54310,62850,59040,54480,62220,54330,54370,54280,59450,64660,61530,54580,54330,54510,54550,64450,54280,54530,54300,54410,54320,54520,59660,54240,54440,54260,62380,54540,54340],
              "rtimes": [54430,54270,62820,59020,54440,62190,54300,54340,54250,59420,64650,61490,54540,54290,54480,54510,64460,54320,54500,54270,54360,54300,54480,59620,54220,54410,54230,62360,54520,54300]
            },
            "time": 54240
          }
        ]
      },
      {
        "name": "js60",
        "version": "",
        "host": "redrock",
        "platform": "linux",
        "cmd": "js60 /tmp/puzzle-proxy-js60.js",
        "logs": [
          {
            "date": "2020-01-11T00:01:59.222Z",
            "times": {
              "ustimes": [40220,40600,40560,39850,40230,39940,40280,40480,40760,41540,39990,40430,40450,40000,40330,39980,40640,40780,40660,40480,40210,41420,40920,40440,40810,40470,40320,40150,39790,40910],
              "rtimes": [40130,40510,40500,39740,40170,39860,40240,40380,40660,41440,39900,40360,40340,39920,40280,39910,40540,40680,40580,40420,40130,41330,40840,40380,40720,40380,40220,40100,39690,40820]
            },
            "time": 39790
          }
        ]
      },
      {
        "name": "jsc",
        "version": "",
        "host": "redrock",
        "platform": "linux",
        "cmd": "jsc /tmp/puzzle-proxy-jsc.js --",
        "logs": [
          {
            "date": "2020-01-11T00:01:59.222Z",
            "times": {
              "ustimes": [56370,53190,52180,54160,55530,57850,55290,53140,53280,53260,52380,52150,52560,54240,52590,52880,52330,53410,52620,52020,52530,52560,52600,53080,52430,52930,53550,51900,52820,53200],
              "rtimes": [56350,53120,52150,54110,55500,57960,55200,53200,53240,53180,52420,52060,52520,54250,52500,52860,52230,53350,52570,52010,52510,52510,52520,53070,52350,52940,53490,51840,52750,53160]
            },
            "time": 51900
          }
        ]
      },
      {
        "name": "hop",
        "version": "3.3.0-mt",
        "host": "redrock",
        "platform": "linux",
        "cmd": "/tmp/puzzle-proxy -",
        "logs": [
          {
            "date": "2020-01-11T00:01:59.222Z",
            "times": {
              "ustimes": [7060,7060,7020,7090,7110,7260,7090,7100,7070,7080,7060,7080,7070,7090,7140,7100,7070,7040,7080,7110,7050,7050,7080,7130,7120,7120,7070,7050,7040,7070],
              "rtimes": [7050,7060,7050,7070,7090,7250,7080,7080,7060,7060,7060,7070,7090,7070,7140,7100,7070,7040,7090,7070,7050,7050,7080,7120,7120,7100,7060,7050,7050,7070]
            },
            "time": 7020
          }
        ]
      },
      {
        "name": "chakra",
        "version": "",
        "host": "redrock",
        "platform": "linux",
        "cmd": "ch /tmp/puzzle-proxy-chakra.js -args",
        "logs": [
          {
            "date": "2020-01-11T00:01:59.222Z",
            "times": {
              "ustimes": [66990,61210,61220,67960,63650,61120,62360,66350,60810,61140,63280,63390,63790,65610,65630,63740,61730,63890,60840,61100,61550,63290,61570,63620,61350,62030,60650,60250,60770,61080],
              "rtimes": [66970,61210,61310,67950,63630,61110,62340,66340,60820,61120,63270,63380,63790,65600,65610,63790,61720,63890,60820,61080,61530,63290,61560,63600,61340,62010,60650,60230,60780,61060]
            },
            "time": 60250
          }
        ]
      },
      {
        "name": "graal",
        "version": "v10.15.2",
        "host": "redrock",
        "platform": "linux",
        "cmd": "/opt/JS/GRAAL/graalvm-ce-19.1.1/bin/node proxy/puzzle-proxy.js",
        "logs": [
          {
            "date": "2020-01-11T00:01:59.222Z",
            "times": {
              "ustimes": [18460,18540,18600,18430,18530,18540,18810,18550,18480,18600,18500,18530,18500,18650,18500,18560,18470,18500,18470,18480,18540,18600,18550,18540,18470,18540,18730,18580,18570,18420],
              "rtimes": [15700,15720,15750,15670,15730,15760,15960,15730,15690,15750,15720,15700,15680,15770,15700,15690,15730,15700,15700,15670,15730,15780,15700,15740,15710,15750,15830,15740,15740,15660]
            },
            "time": 18420
          }
        ]
      },
      {
        "name": "hopnoscache",
        "version": "3.3.0-mt",
        "host": "redrock",
        "platform": "linux",
        "cmd": "/tmp/puzzle-proxy -",
        "logs": [
          {
            "date": "2020-01-11T00:01:59.222Z",
            "times": {
              "ustimes": [7250,7140,7160,7170,7210,7190,7210,7180,7160,7200,7190,7190,7200,7150,7190,7190,7230,7180,7180,7180,7220,7220,7240,7220,7230,7170,7150,7220,7170,7150],
              "rtimes": [7220,7140,7170,7160,7190,7210,7190,7160,7160,7180,7190,7180,7190,7180,7180,7180,7210,7160,7170,7170,7220,7210,7210,7220,7220,7170,7140,7180,7150,7140]
            },
            "time": 7140
          }
        ]
      },
      {
        "name": "hopnopcache",
        "version": "3.3.0-mt",
        "host": "redrock",
        "platform": "linux",
        "cmd": "/tmp/puzzle-proxy -",
        "logs": [
          {
            "date": "2020-01-11T00:01:59.222Z",
            "times": {
              "ustimes": [10690,10710,10770,10670,10680,10730,10650,10680,10750,10660,10670,10690,10810,10670,10880,10680,10690,11900,10660,10680,10670,10680,10670,10760,10670,10620,10960,10670,10680,10760],
              "rtimes": [10660,10710,10760,10660,10660,10720,10650,10650,10730,10660,10660,10670,10790,10670,10870,10660,10690,11890,10640,10650,10650,10650,10660,10730,10670,10620,10950,10650,10670,10740]
            },
            "time": 10620
          }
        ]
      },
      {
        "name": "hopnoopt",
        "version": "3.3.0-mt",
        "host": "redrock",
        "platform": "linux",
        "cmd": "/tmp/puzzle-proxy -",
        "logs": [
          {
            "date": "2020-01-11T00:01:59.222Z",
            "times": {
              "ustimes": [8770,8670,8660,8640,8680,8670,8700,8770,8680,8650,8670,8700,8700,8620,8690,8630,8640,8650,8660,8690,8670,8680,8640,8670,8690,8670,8750,8690,8680,8660],
              "rtimes": [8740,8650,8640,8640,8680,8660,8680,8760,8650,8640,8640,8670,8690,8660,8670,8620,8620,8660,8650,8670,8660,8660,8640,8650,8690,8640,8730,8670,8680,8650]
            },
            "time": 8620
          }
        ]
      },
      {
        "name": "hopfullcache",
        "version": "3.3.0-mt",
        "host": "redrock",
        "platform": "linux",
        "cmd": "/tmp/puzzle-proxy -",
        "logs": [
          {
            "date": "2020-01-11T00:01:59.222Z",
            "times": {
              "ustimes": [7160,7180,7260,7210,7310,7290,7170,7210,7190,7190,7210,7220,7160,7170,7280,7180,7200,7190,7170,7210,7180,7180,7170,7240,7170,7180,7190,7160,7200,7200],
              "rtimes": [7150,7150,7260,7180,7290,7290,7160,7200,7180,7190,7190,7200,7180,7150,7270,7160,7180,7160,7180,7200,7160,7170,7170,7220,7160,7160,7160,7180,7180,7170]
            },
            "time": 7160
          }
        ]
      }
    ]
  }
]