[
  {
    "name": "richards",
    "subtitle": false,
    "path": "octane/richards.js",
    "args": false,
    "engines": [
      {
        "name": "nodejs",
        "version": "v10.17.0",
        "host": "redrock",
        "platform": "linux",
        "cmd": "nodejs octane/richards.js",
        "logs": [
          {
            "date": "2020-01-11T14:23:56.148Z",
            "times": {
              "ustimes": [2430,2380,2370,2370,2370,2380,2380,2370,2390,2370,2370,2380,2350,2350,2400,2400,2350,2390,2390,2370,2380,2380,2370,2380,2380,2380,2420,2390,2370,2390],
              "rtimes": [2410,2350,2350,2350,2320,2330,2330,2330,2340,2350,2320,2330,2320,2330,2350,2350,2330,2350,2350,2330,2340,2330,2330,2320,2340,2330,2370,2380,2330,2370]
            },
            "time": 2350
          }
        ]
      },
      {
        "name": "js60",
        "version": "",
        "host": "redrock",
        "platform": "linux",
        "cmd": "js60 /tmp/richards-js60.js",
        "logs": [
          {
            "date": "2020-01-11T14:23:56.148Z",
            "times": {
              "ustimes": [2000,2000,1980,1970,1990,1970,1980,1990,1980,2000,1970,1980,1980,1990,1970,2000,1980,1990,1990,2000,1970,1980,2000,1990,1970,1990,1970,1990,1990,1980],
              "rtimes": [1970,1980,1960,1960,1950,1950,1960,1960,1950,1960,1940,1970,1950,1960,1970,1960,1950,1970,1960,1970,1940,1960,1960,1960,1960,1960,1960,1950,1960,1950]
            },
            "time": 1970
          }
        ]
      },
      {
        "name": "jsc",
        "version": "",
        "host": "redrock",
        "platform": "linux",
        "cmd": "jsc /tmp/richards-jsc.js --",
        "logs": [
          {
            "date": "2020-01-11T14:23:56.148Z",
            "times": {
              "ustimes": [1770,1780,1830,1830,1790,1840,1840,1900,1790,1750,1810,1770,1800,1850,1780,1810,1780,1830,1850,1750,1830,1850,1780,1770,1820,1850,1830,1790,1820,1750],
              "rtimes": [1670,1700,1740,1740,1730,1750,1760,1800,1690,1670,1690,1690,1700,1760,1680,1740,1690,1740,1750,1680,1730,1760,1700,1680,1720,1780,1760,1700,1730,1670]
            },
            "time": 1750
          }
        ]
      },
      {
        "name": "hop",
        "version": "3.3.0-mt",
        "host": "redrock",
        "platform": "linux",
        "cmd": "/tmp/richards -",
        "logs": [
          {
            "date": "2020-01-11T14:23:56.148Z",
            "times": {
              "ustimes": [9670,9770,9880,9750,9920,9810,9910,9830,9890,9930,9780,9810,9730,9840,9720,9810,9860,9720,9850,9860,9800,9810,9810,9750,9720,10400,9700,9760,9780,9740],
              "rtimes": [7100,7470,7250,7130,7310,7420,7290,7250,7390,7350,7170,7210,7220,7230,7370,7330,7260,7160,7240,7300,7220,7260,7250,7300,7180,7750,7160,7140,7170,7240]
            },
            "time": 9670
          }
        ]
      },
      {
        "name": "chakra",
        "version": "",
        "host": "redrock",
        "platform": "linux",
        "cmd": "ch /tmp/richards-chakra.js -args",
        "logs": [
          {
            "date": "2020-01-11T14:23:56.148Z",
            "times": {
              "ustimes": [3260,3240,3230,3240,3230,3240,3220,3230,3210,3240,3230,3250,3240,3220,3230,3230,3230,3230,3220,3260,3260,3240,3210,3240,3250,3220,3250,3260,3250,3240],
              "rtimes": [3180,3160,3170,3170,3170,3170,3160,3180,3140,3170,3150,3160,3170,3150,3160,3150,3170,3160,3160,3190,3190,3190,3140,3160,3170,3160,3180,3180,3180,3160]
            },
            "time": 3210
          }
        ]
      },
      {
        "name": "graal",
        "version": "v10.15.2",
        "host": "redrock",
        "platform": "linux",
        "cmd": "/opt/JS/GRAAL/graalvm-ce-19.1.1/bin/node octane/richards.js",
        "logs": [
          {
            "date": "2020-01-11T14:23:56.148Z",
            "times": {
              "ustimes": [5990,5930,6050,5930,5940,5950,6060,5970,5970,6020,5900,5940,5950,6000,5960,5940,6020,5940,6000,6160,6130,5910,5980,5890,6000,5960,5940,5970,5950,5910],
              "rtimes": [4750,4690,4780,4680,4690,4710,4760,4720,4720,4740,4700,4690,4690,4750,4710,4660,4780,4690,4750,4840,4840,4660,4710,4700,4760,4730,4660,4690,4710,4660]
            },
            "time": 5890
          }
        ]
      },
      {
        "name": "hopnoscache",
        "version": "3.3.0-mt",
        "host": "redrock",
        "platform": "linux",
        "cmd": "/tmp/richards -",
        "logs": [
          {
            "date": "2020-01-11T14:23:56.148Z",
            "times": {
              "ustimes": [9510,9570,9620,9540,9600,9570,9590,9690,9610,9550,9510,9820,9440,9490,9530,9570,9570,9580,9520,9520,9560,9580,9570,9520,9430,9570,9510,9600,11050,9460],
              "rtimes": [7020,7220,7080,6940,7040,7020,7080,7070,7110,7020,6980,7290,7100,6950,7040,6960,7060,7020,6920,7020,7060,7240,7090,6980,6930,7240,6970,7010,8520,6950]
            },
            "time": 9430
          }
        ]
      },
      {
        "name": "hopnopcache",
        "version": "3.3.0-mt",
        "host": "redrock",
        "platform": "linux",
        "cmd": "/tmp/richards -",
        "logs": [
          {
            "date": "2020-01-11T14:23:56.148Z",
            "times": {
              "ustimes": [9650,9760,9850,9910,9920,9740,9830,9680,9860,9620,9650,9820,9930,9790,9620,9770,9960,9770,9740,9650,10130,9780,9740,9740,9770,9830,9800,9760,9880,9790],
              "rtimes": [7110,7190,7450,7430,7380,7130,7220,7160,7250,7130,7140,7240,7550,7170,7160,7190,7270,7190,7200,7140,7550,7200,7180,7170,7210,7220,7230,7140,7300,7240]
            },
            "time": 9620
          }
        ]
      },
      {
        "name": "hopnoopt",
        "version": "3.3.0-mt",
        "host": "redrock",
        "platform": "linux",
        "cmd": "/tmp/richards -",
        "logs": [
          {
            "date": "2020-01-11T14:23:56.148Z",
            "times": {
              "ustimes": [9720,9880,9650,9940,9830,9780,9820,9670,9770,9990,9810,9620,9880,9890,9650,9760,9740,9680,9830,9880,9720,9710,9920,10020,9760,9800,9830,9900,9710,9690],
              "rtimes": [7130,7220,7160,7470,7430,7250,7230,7140,7250,7350,7250,7100,7400,7580,7160,7210,7120,7180,7200,7270,7180,7200,7560,7440,7240,7210,7250,7340,7160,7140]
            },
            "time": 9620
          }
        ]
      },
      {
        "name": "hopfullcache",
        "version": "3.3.0-mt",
        "host": "redrock",
        "platform": "linux",
        "cmd": "/tmp/richards -",
        "logs": [
          {
            "date": "2020-01-11T14:23:56.148Z",
            "times": {
              "ustimes": [9610,9820,9790,9650,9770,9730,9780,9770,9720,9760,9850,9640,9640,9800,9730,9810,9760,9710,9750,9750,9730,9830,9660,9700,9880,9880,9780,9800,9710,9740],
              "rtimes": [7150,7330,7140,7120,7230,7210,7220,7200,7140,7190,7210,7150,7130,7240,7390,7230,7170,7130,7190,7170,7140,7180,7090,7390,7420,7230,7230,7190,7140,7140]
            },
            "time": 9610
          }
        ]
      }
    ]
  }
]